﻿Country;City;Jan;Feb;Mar;Apr;May;Jun;Jul;Aug;Sep;Oct;Nov;Dec;Year;Continent;city_ascii;lat;lng;iso2;iso3;admin_name;capital;population;id
Algeria;Algiers;11.2;11.9;12.8;14.7;17.7;21.3;24.6;25.2;23.2;19.4;15.2;12.1;17.4;AFRICA;Algiers;36.7764;3.0586;DZ;DZA;Alger;primary;3415811;1012973369
Algeria;Tamanrasset;12.8;15;18.1;22.2;26.1;28.9;28.7;28.2;26.5;22.4;17.3;13.9;21.7;AFRICA;Tamanrasset;22.785;5.5228;DZ;DZA;Tamanrasset;admin;76000;1012765474
Algeria;Reggane;16;18.2;23.1;27.9;32.2;36.4;39.8;38.4;35.5;29.2;22;17.8;28.3;AFRICA;Reggane;26.7;0.1666;DZ;DZA;Adrar;;32974;1012709576
Angola;Luanda;26.7;28.5;28.6;28.2;27;23.9;22.1;22.1;23.5;25.2;26.7;26.9;25.8;AFRICA;Luanda;-8.8383;13.2344;AO;AGO;Luanda;primary;8417000;1024949724
Benin;Cotonou;27.3;28.5;28.9;28.6;27.8;26.5;25.8;25.6;26;26.7;27.6;27.3;27.2;AFRICA;Cotonou;6.4;2.52;BJ;BEN;Littoral;primary;762000;1204955174
Benin;Parakou;26.5;28.7;29.6;29;27.5;26.1;25.1;24.7;25;26.1;26.6;26.1;26.8;AFRICA;Parakou;9.34;2.62;BJ;BEN;Borgou;admin;188853;1204807468
Benin;Kandi;24.9;27.8;30.9;32.1;30.4;28.1;26.4;26;26.2;27.8;26.5;24.8;27.7;AFRICA;Kandi;11.1304;2.94;BJ;BEN;Alibori;admin;109701;1204875413
Botswana;Maun;25.4;25.1;24.2;22.6;18.7;15.7;15.8;18.8;23.1;26.6;26.4;25.8;22.4;AFRICA;Maun;-19.9833;23.4167;BW;BWA;North West;admin;49945;1072985345
Botswana;Gaborone;26;25;24;21;17;13;13;17;21;23;25;25;21;AFRICA;Gaborone;-24.6569;25.9086;BW;BWA;Gaborone;primary;231626;1072756768
Botswana;Ghanzi;25.9;25.3;24.1;21.2;17.6;14.3;14.1;17.1;21.5;24.6;25.7;26.1;21.4;AFRICA;Ghanzi;-21.7;21.65;BW;BWA;Ghanzi;admin;6306;1072132620
Burkina Faso;Ouagadougou;24.8;27.7;30.9;32.6;31.6;29.2;27.3;26.4;27;28.9;27.7;25.1;28.3;AFRICA;Ouagadougou;12.3572;-1.5353;BF;BFA;Centre;primary;1626950;1854029208
Burkina Faso;Ouahigouya;24.2;27.1;30.4;33;33.2;30.8;27.9;27.2;27.8;29.6;27.4;24.6;28.6;AFRICA;Ouahigouya;13.5833;-2.4167;BF;BFA;Nord;admin;79504;1854011699
Burundi;Bujumbura;23.8;23.8;23.7;23.9;23.9;23.3;22.9;24;24.7;24.6;23.4;23.6;23.8;AFRICA;Bujumbura;-3.3825;29.3611;BI;BDI;Bujumbura Mairie;primary;658859;1108101689
Cameroon;Garoua;26;28.9;32.2;33;30.7;28.2;26.6;26.4;26.7;28.1;27.3;26;28.3;AFRICA;Garoua;9.3;13.4;CM;CMR;Nord;admin;235996;1120803808
Cameroon;Ngaoundéré;20.5;22.2;24.1;24.1;23.1;22.1;21.5;22.5;21.7;22.1;20.9;20.4;22;AFRICA;Ngaoundere;7.3214;13.5839;CM;CMR;Adamaoua;admin;189800;1120011020
Cameroon;Douala;27.5;28.1;27.8;27.6;27.2;26.2;25.1;24.9;25.6;26.1;26.9;27.2;26.7;AFRICA;Douala;4.05;9.7;CM;CMR;Littoral;admin;2446945;1120494607
Cameroon;Yaoundé;23.7;25.3;25;24.6;24.1;23.4;22.6;23;23.1;23.3;23.7;23.7;23.8;AFRICA;Yaounde;3.8578;11.5181;CM;CMR;Centre;primary;2440462;1120298240
Cape Verde;Praia;22.4;22.2;22.9;23.4;24;24.9;25.4;26.2;26.8;26.4;25.4;23.4;24.4;AFRICA;;;;;;;;;
Central African Republic;Bangui;26;27.1;27.4;27.1;26.5;25.3;25.1;25.1;25.4;25.5;25.7;25.7;26;AFRICA;Bangui;4.3732;18.5628;CF;CAF;Bangui;primary;734350;1140080881
Central African Republic;Birao;23.6;26.7;29;29.6;30;28;25.9;25.4;26.2;26.6;24.5;22.2;26.5;AFRICA;Birao;10.2837;22.7833;CF;CAF;Vakaga;admin;10178;1140392673
Chad;N'Djamena;23.3;26.9;30.4;33.8;33.5;31;28.2;26.5;27.8;29.2;27.3;24;28.3;AFRICA;;;;;;;;;
Chad;Abéché;26.8;28.1;31.2;33.3;33.2;32.2;28.7;27;28.4;30;28.5;25.9;29.4;AFRICA;Abeche;13.8331;20.8347;TD;TCD;Ouaddaï;admin;76492;1148461151
Democratic Republic of the Congo;Kinshasa;26;26.2;26.7;26.8;26;23.7;22.2;23.5;25.3;26;25.9;25.6;25.3;AFRICA;;;;;;;;;
Democratic Republic of the Congo;Lubumbashi;21.8;21.6;21.8;21.4;19.2;17;16.8;19.1;22.2;23.8;22.8;21.8;20.8;AFRICA;;;;;;;;;
Djibouti;Djibouti;25.1;25.7;27;28.7;31;34.2;36.4;36;33.1;29.3;26.9;25.4;29.9;AFRICA;Djibouti;11.595;43.1481;DJ;DJI;Djibouti;primary;562000;1262028958
Egypt;Cairo;13.6;14.9;16.9;21.2;24.5;27.3;27.6;27.4;26;23.3;18.9;15;21.4;AFRICA;Cairo;30.0561;31.2394;EG;EGY;Al Qāhirah;primary;19372000;1818253931
Egypt;Alexandria;13.4;13.9;15.7;18.5;21.2;24.3;25.9;26.3;25.1;22;18.7;14.9;20;AFRICA;Alexandria;31.2;29.9167;EG;EGY;Al Iskandarīyah;admin;4870000;1818695837
Equatorial Guinea;Bata;25.6;25.8;25.7;25.6;25.6;25;24.1;24.2;24.6;24.8;25.2;25;25.1;AFRICA;Bata;1.85;9.75;GQ;GNQ;Litoral;admin;250770;1226528087
Equatorial Guinea;Malabo;26.9;27.7;27.6;27.2;26.7;25.9;25.3;25;25.1;25.5;26.1;26.6;26.3;AFRICA;Malabo;3.7521;8.7737;GQ;GNQ;Bioko Norte;primary;187302;1226861333
Eritrea;Asmara;13.8;14.9;16.3;17;17.6;17.6;16.3;16.1;15.7;14.9;14;13.2;15.6;AFRICA;Asmara;15.3333;38.9167;ER;ERI;Ma’ākel;primary;963000;1232791236
Eritrea;Assab;26.3;26.7;28.5;30.5;32;33.1;35;34.6;32.9;31.2;28.8;26.9;30.5;AFRICA;Assab;13.0078;42.7411;ER;ERI;Debubawī K’eyih Bahrī;admin;74405;1232396238
Ethiopia;Mek'ele;19.5;20.5;21.5;22.5;23.5;23.5;20.5;20;21.5;20.5;19.5;18.5;22.7;AFRICA;;;;;;;;;
Ethiopia;Addis Ababa;16;17;17;17;18;17;15;16;16;16;15;15;16;AFRICA;Addis Ababa;9.0272;38.7369;ET;ETH;Ādīs Ābeba;primary;3041002;1231824991
Gabon;Libreville;26.8;27;27.1;26.6;26.7;25.4;24.3;24.3;25.4;25.7;25.9;26.2;25.9;AFRICA;Libreville;0.3901;9.4544;GA;GAB;Estuaire;primary;797003;1266952885
Gabon;Port-Gentil;26.9;27.3;27.3;27.1;26.6;24.4;23.5;24.7;25.4;25.9;26.1;26.5;26;AFRICA;Port-Gentil;-0.7167;8.7833;GA;GAB;Ogooué-Maritime;admin;116836;1266383028
The Gambia;Banjul;23;25;25;25;26;27;27;27;27;27;26;24;26;AFRICA;;;;;;;;;
Ghana;Accra;27.3;27.7;27.7;27.7;27.2;25.6;24.4;24.3;25.2;26;27;27.2;26.4;AFRICA;Accra;5.6037;-0.187;GH;GHA;Greater Accra;primary;2291352;1288299415
Ghana;Tamale;27.9;30.1;30.9;29.8;28.6;26.8;26;25.8;25.9;27.3;28.2;27.5;27.9;AFRICA;Tamale;9.4075;-0.8533;GH;GHA;Northern;admin;466723;1288890688
Ghana;Kumasi;26;27;27;27;26;26;24;24;24;25;26;25;26;AFRICA;Kumasi;6.6833;-1.6167;GH;GHA;Ashanti;admin;2069350;1288181103
Guinea;Conakry;26.1;26.5;27;27.4;27.5;26.5;25.5;25.2;25.6;26.3;27;26.6;26.4;AFRICA;Conakry;9.5092;-13.7122;GN;GIN;Conakry;primary;1667864;1324568159
Guinea;Kankan;24.3;26.3;29.6;30.1;28.3;26.4;25.3;25.1;25.5;26.4;27;23.8;26.5;AFRICA;Kankan;10.39;-9.31;GN;GIN;Kankan;admin;114009;1324495325
Guinea-Bissau;Bissau;26;27;28;28;28;28;27;26;27;28;27;26;27;AFRICA;Bissau;11.8592;-15.5956;GW;GNB;Bissau;primary;395954;1624168850
Ivory Coast;Gagnoa;26;27;27;27;27;26;25;25;25;26;26;26;26;AFRICA;;;;;;;;;
Ivory Coast;Bouaké;27;28;28;27;26;25;24;24;24;25;26;26;26;AFRICA;;;;;;;;;
Ivory Coast;Abidjan;27;28;28;28;27;26;25;24;25;26;27;27;26;AFRICA;;;;;;;;;
Ivory Coast;Odienné;25;27;28;28;27;26;25;25;25;25;25;23;26;AFRICA;;;;;;;;;
Kenya;Mombasa;27.6;28.1;28.3;27.6;26.2;24.8;24;24;24.7;25.7;26.9;27.4;26.3;AFRICA;Mombasa;-4.05;39.6667;KE;KEN;Mombasa;admin;1200000;1404512373
Kenya;Nairobi;18;18.8;19.4;19.2;17.8;16.3;15.6;15.9;17.3;18.5;18.4;18.1;17.8;AFRICA;Nairobi;-1.2864;36.8172;KE;KEN;Nairobi City;primary;5545000;1404000661
Kenya;Garissa;29.7;30.6;31.4;30.7;29.6;27.9;27.4;27.6;28.4;29.7;29.9;29.2;29.3;AFRICA;Garissa;-0.4569;39.6583;KE;KEN;Garissa;admin;65881;1404464692
Kenya;Lodwar;28.7;29.6;30.1;29.6;29.7;29.1;28.4;28.7;29.6;30.1;29.1;28.5;29.3;AFRICA;Lodwar;3.1167;35.6;KE;KEN;Turkana;admin;82970;1404993573
Libya;Tripoli;12;13;15;18;22;26;27;28;27;23;17;13;20;AFRICA;Tripoli;32.8752;13.1875;LY;LBY;Ţarābulus;primary;1126000;1434201852
Libya;Benghazi;12.5;13.2;14.9;18.7;22.5;25.5;25.9;26.5;25.1;22.1;18.2;14.1;19.9;AFRICA;Benghazi;32.1167;20.0667;LY;LBY;Banghāzī;admin;631555;1434915572
Madagascar;Fianarantsoa;20.8;20.8;20;18.9;16.7;14.5;14;14.4;16.2;18.3;19.7;20.4;17.9;AFRICA;Fianarantsoa;-21.4333;47.0833;MG;MDG;Fianarantsoa;admin;184184;1450070223
Madagascar;Toamasina;26;26.1;25.5;24.6;22.9;21.1;20.4;20.5;21.3;22.7;24.3;25.5;23.4;AFRICA;Toamasina;-18.1492;49.4023;MG;MDG;Toamasina;admin;225116;1450540529
Madagascar;Antananarivo;20.5;20.7;20.1;19.2;16.8;14.6;14.1;14.5;16.3;18.5;19.7;20.2;17.9;AFRICA;Antananarivo;-18.9386;47.5214;MG;MDG;Antananarivo;primary;2610000;1450978461
Madagascar;Antsiranana;26;26;26.2;26.3;25.4;24.1;23.5;23.4;24.1;25.2;26.3;26.5;25.2;AFRICA;;;;;;;;;
Madagascar;Mahajanga;27.1;27.2;27.5;27.4;26.1;24.6;24.2;24.6;25.4;26.8;27.7;27.4;26.3;AFRICA;Mahajanga;-15.67;46.345;MG;MDG;Mahajanga;admin;154657;1450421961
Madagascar;Toliara;27.5;27.5;26.8;25;22.7;20.7;20.3;21;22.3;23.9;25.3;26.6;24.1;AFRICA;Toliara;-23.35;43.6667;MG;MDG;Toliara;admin;115319;1450593748
Malawi;Karonga;24.9;25;24.7;24.6;23.6;22.2;21.7;22.4;24.3;26.4;27;25.7;24.4;AFRICA;Karonga;-9.9329;33.9333;MW;MWI;Karonga;admin;34207;1454358935
Malawi;Blantyre;23.5;23.4;23.2;22.2;20.3;18.5;18.4;20;23.1;25;25;24;22.2;AFRICA;Blantyre;-15.7861;35.0058;MW;MWI;Blantyre;admin;1895973;1454145012
Malawi;Mzuzu;19.9;20;19.5;18.7;16.4;13.9;13.1;14;16.7;19.4;20.5;20.1;17.7;AFRICA;Mzuzu;-11.45;34.0333;MW;MWI;Mzimba;;150100;1454525586
Mali;Ségou;24;27;30;33;33;30;28;27;27;29;27;25;28;AFRICA;Segou;13.45;-6.2667;ML;MLI;Ségou;admin;133501;1466684950
Mali;Timbuktu;21;23;27;31;33;34;32;31;31;30;26;21;28;AFRICA;Timbuktu;16.7733;-2.9994;ML;MLI;Tombouctou;admin;35330;1466595315
Mali;Bamako;25.1;27.8;30.2;31.6;31.4;29.1;26.8;26.1;26.6;27.7;26.5;24.8;27.8;AFRICA;Bamako;12.6458;-7.9922;ML;MLI;Bamako;primary;2009109;1466965925
Mauritania;Nouadhibou;18.3;19.2;20.1;19.9;20.4;22.8;22.4;23.5;24.6;23.3;21.2;19.2;21.3;AFRICA;Nouadhibou;20.95;-17.0333;MR;MRT;Dakhlet Nouadhibou;admin;118000;1478176283
Mauritania;Nouakchott;21.5;23;24.2;24.3;25.8;26.7;27.3;28.4;29.6;28.8;25.8;22.8;25.7;AFRICA;Nouakchott;18.0783;-15.9744;MR;MRT;;primary;1077169;1478414984
Morocco;Rabat;12.6;13.1;14.2;15.2;17.4;19.8;22.2;22.4;21.5;19;15.9;13.2;17.2;AFRICA;Rabat;34.0253;-6.8361;MA;MAR;Rabat-Salé-Kénitra;primary;1628000;1504023252
Morocco;Marrakesh;12.2;13.8;15.8;17.3;20.6;23.8;28.3;28.3;25.3;21.1;16.3;12.6;19.6;AFRICA;;;;;;;;;
Morocco;Ouarzazate;9.3;11.9;14.8;17.6;21.7;25.9;29.5;28.8;24.6;19.4;13.7;9.5;18.9;AFRICA;;;;;;;;;
Mozambique;Maputo;26.3;26.2;25.6;23.5;21.4;18.9;18.8;20;21.5;22.4;23.8;25.5;22.8;AFRICA;Maputo;-25.9153;32.5764;MZ;MOZ;Maputo;primary;1191613;1508074843
Niger;Niamey;24.3;27.3;30.9;33.8;34;31.5;29;27.9;29;30.8;27.9;25;29.3;AFRICA;Niamey;13.5086;2.1111;NE;NER;Niamey;primary;1026848;1562932886
Nigeria;Lagos;27.3;28.5;28.5;28;27.1;25.6;25.3;25.1;25.5;26.4;27.2;27.2;26.8;AFRICA;Lagos;6.45;3.4;NG;NGA;Lagos;minor;15279000;1566593751
Nigeria;Makurdi;26.9;27.3;27.3;27.1;26.6;24.4;23.5;24.7;25.4;25.9;26.1;26.5;26;AFRICA;Makurdi;7.73;8.53;NG;NGA;Benue;admin;292645;1566873994
Nigeria;Jos;27.3;28.7;30.4;30.2;28.2;26.6;24.4;24.3;26.1;27.8;28;27.2;27.4;AFRICA;Jos;9.9333;8.8833;NG;NGA;Plateau;admin;873943;1566773679
Nigeria;Kano;21.2;24.4;28.7;31.3;30.9;28.2;26.2;25.5;26.6;27.3;24.6;21.6;26.4;AFRICA;Kano;12;8.5167;NG;NGA;Kano;admin;2828861;1566422868
Nigeria;Sokoto;25;26;30;32;32;31;28;27;28;28;27;25;28;AFRICA;Sokoto;13.0622;5.2339;NG;NGA;Sokoto;admin;732178;1566574518
Republic of the Congo;Brazzaville;26;26;27;26;26;23;22;23;25;26;26;26;25;AFRICA;;;;;;;;;
Republic of the Congo;Pointe-Noire;27.5;27.6;27.9;27.8;26.8;24.5;23.1;23.3;24.5;26.3;26.7;26.9;26.1;AFRICA;;;;;;;;;
Republic of the Congo;Dolisie;25;26;26;26;25;23;21;22;23;25;25;25;24;AFRICA;;;;;;;;;
Senegal;Dakar;21;21;21;21;22;25;27;27;27;27;26;23;24;AFRICA;Dakar;14.7319;-17.4572;SN;SEN;Dakar;primary;1146053;1686604760
Senegal;Thiès;21;21;21;22;24;26;27;27;27;27;26;23;24;AFRICA;Thies;14.7833;-16.9167;SN;SEN;Thiès;admin;293001;1686527948
Somalia;Bosaso;25;25;26.7;28.8;31.1;35.6;35.6;36.1;33.3;27.8;25.6;25.6;30;AFRICA;;;;;;;;;
Somalia;Hargeisa;17.7;18.7;21.6;23;24.1;24.3;23.6;23.6;23.6;24.1;18.7;18;21.7;AFRICA;;;;;;;;;
Somalia;Mogadishu;26.6;26.9;28;28.9;28.2;26.7;25.4;25.9;26.5;27.3;27.5;26.9;27.1;AFRICA;Mogadishu;2.0408;45.3425;SO;SOM;Banaadir;primary;2120000;1706893395
South Africa;Pretoria;22.6;22.1;21;17.9;14.7;11.5;11.9;14.7;18.6;20.1;21;21.9;18.2;AFRICA;Pretoria;-25.7464;28.1881;ZA;ZAF;Gauteng;primary;741651;1710176249
South Africa;Cape Town;20.4;20.4;19.2;16.9;14.4;12.5;11.9;12.4;13.7;15.6;17.9;19.5;16.2;AFRICA;Cape Town;-33.925;18.425;ZA;ZAF;Western Cape;primary;433688;1710680650
South Africa;Johannesburg;19.5;19;18;15.3;12.6;9.6;10;12.5;15.9;17.1;17.9;19;15.5;AFRICA;Johannesburg;-26.2044;28.0416;ZA;ZAF;Gauteng;admin;4434827;1710550792
South Africa;Bloemfontein;22.8;21.4;19.2;14.9;10.7;6.9;7.2;10.1;14.6;17.5;19.9;21.9;15.6;AFRICA;Bloemfontein;-29.1;26.2167;ZA;ZAF;Free State;primary;256185;1710495933
South Africa;Upington;27.8;26.9;24.7;20.2;15.7;12.1;11.9;14;18.1;21.4;24.7;26.9;20.4;AFRICA;Upington;-28.4572;21.2425;ZA;ZAF;Northern Cape;;121189;1710210449
South Africa;Durban;24.1;24.3;23.7;21.6;19.1;16.6;16.5;17.7;19.2;20.1;21.4;23.1;20.6;AFRICA;Durban;-29.8583;31.025;ZA;ZAF;KwaZulu-Natal;;595061;1710149138
South Sudan;Juba;28.3;29.5;29.9;29.2;27.9;26.9;25.9;26.1;26.8;27.5;27.6;27.7;27.8;AFRICA;Juba;4.85;31.6;SS;SSD;Central Equatoria;primary;372410;1728444337
South Sudan;Wau;26.8;28.5;30.4;30.6;29.3;27.5;26.3;26.2;26.8;27.4;27.4;26.5;27.8;AFRICA;Wau;7.7;27.9833;SS;SSD;Western Bahr el Ghazal;admin;163442;1728877501
Sudan;Port Sudan;23.3;23;24.3;26.5;29.3;32.2;34.1;34.5;32.1;29.3;27.3;24.7;28.4;AFRICA;Port Sudan;19.6158;37.2164;SD;SDN;Red Sea;admin;489275;1729710259
Sudan;Khartoum;23.2;25;28.7;31.9;34.5;34.3;32.1;31.5;32.5;32.4;28.1;24.5;29.9;AFRICA;Khartoum;15.6031;32.5265;SD;SDN;Khartoum;primary;7282000;1729268475
Tanzania;Dar es Salaam;27.4;27.7;27.4;26.5;25.5;24.2;23.5;23.7;24.3;25.3;26.3;27.3;25.8;AFRICA;Dar es Salaam;-6.8;39.2833;TZ;TZA;Dar es Salaam;primary;6698000;1834843853
Tanzania;Zanzibar City;28;28;28;27;25;25;24;25;25;26;27;27;26;AFRICA;;;;;;;;;
Tanzania;Tabora;22;22;22;22;22;21;21;22;24;25;24;22;23;AFRICA;Tabora;-5.0167;32.8;TZ;TZA;Tabora;admin;127880;1834712235
Tanzania;Dodoma;23.8;23;23.5;22.8;22.1;21.4;19.8;20.5;22.3;23.8;25.1;24.6;22.7;AFRICA;Dodoma;-6.25;35.75;TZ;TZA;Dodoma;primary;410956;1834288497
Togo;Lomé;27.1;28.2;28.5;28.2;27.4;26.2;25.3;25.2;25.8;26.6;27.3;27.1;26.9;AFRICA;Lome;6.1319;1.2228;TG;TGO;Maritime;primary;837437;1768409132
Togo;Mango;26.8;29.4;31.5;31.4;29.6;27.5;26.4;26;26.4;27.9;27.9;26.7;28.1;AFRICA;;;;;;;;;
Tunisia;Tunis;11.5;12;13.2;15.6;19.3;23.2;26.3;26.8;24.4;20.4;15.9;12.5;18.4;AFRICA;Tunis;36.8008;10.18;TN;TUN;Tunis;primary;1200000;1788742103
Tunisia;Gabès;12;13.3;15.1;17.7;20.8;24;26.6;27.4;25.6;21.7;16.8;13;19.5;AFRICA;Gabes;33.9004;10.1;TN;TUN;Gabès;admin;219517;1788064276
Uganda;Kampala;22;22;22;21;20;20;20;20;20;21;21;21;20;AFRICA;Kampala;0.3136;32.5811;UG;UGA;Kampala;primary;1659600;1800406299
Uganda;Entebbe;21;22;22;21;21;21;20;20;21;21;21;21;21;AFRICA;Entebbe;0.05;32.46;UG;UGA;Wakiso;;69958;1800535915
Zambia;Ndola;20.8;20.8;21;20.5;18.6;16.5;16.7;19.2;22.5;23.7;22.5;21;20.3;AFRICA;Ndola;-12.9683;28.6337;ZM;ZMB;Copperbelt;admin;528330;1894032745
Zambia;Lusaka;21.5;21.5;21.1;19.9;17.4;15.2;14.9;17.3;21.3;23.5;23.4;21.7;19.9;AFRICA;Lusaka;-15.4167;28.2833;ZM;ZMB;Lusaka;primary;1742979;1894157390
Zambia;Livingstone;23.6;23.2;23.1;21.9;18.9;16;16.1;19.3;23.9;26.2;25.1;23.6;21.8;AFRICA;Livingstone;-17.85;25.8667;ZM;ZMB;Southern;;136897;1894634581
Zimbabwe;Harare;21;20.7;20.3;18.8;16.1;13.7;13.4;15.5;18.6;20.8;21.2;20.9;18.4;AFRICA;Harare;-17.8292;31.0522;ZW;ZWE;Harare;primary;1606000;1716196799
Zimbabwe;Bulawayo;21.8;21.2;20.6;18.7;16;13.7;13.8;16.4;19.9;21.6;21.7;21.4;18.9;AFRICA;Bulawayo;-20.1667;28.5667;ZW;ZWE;Bulawayo;admin;653337;1716032632
Afghanistan;Kabul;-2.3;-0.7;6.3;12.8;17.3;22.8;25;24.1;19.7;13.1;5.9;0.6;12.1;ASIA;Kabul;34.5328;69.1658;AF;AFG;Kābul;primary;3678034;1004993580
Azerbaijan;Baku;4.4;4.2;7;12.9;18.5;23.5;26.4;26.3;22.5;16.6;11.2;7.3;15.1;ASIA;Baku;40.3667;49.8352;AZ;AZE;Bakı;primary;2181800;1031946365
Armenia;Yerevan;-3.6;0.1;6.3;12.9;17.4;22.6;26.4;26.1;21.1;13.8;6.2;-0.2;12.4;ASIA;Yerevan;40.1814;44.5144;AM;ARM;Yerevan;primary;1075800;1051074169
Bahrain;Manama;17.2;18;21.2;25.3;30;32.6;34.1;34.2;32.5;29.3;24.5;19.3;26.5;ASIA;Manama;26.2167;50.5831;BH;BHR;Al ‘Āşimah;primary;157474;1048989486
Bangladesh;Dhaka;18.6;22;26.3;28.4;28.8;29;28.7;28.9;28.5;27.4;24;20;25.9;ASIA;Dhaka;23.7161;90.3961;BD;BGD;Dhaka;primary;15443000;1050529279
Cambodia;Phnom Penh;26.6;28;29.4;30.2;30;29.2;28.7;28.5;28.2;27.2;27.1;26.3;28.3;ASIA;Phnom Penh;11.5696;104.921;KH;KHM;Phnom Penh;primary;2129371;1116260534
China;Beijing;-3.1;0.3;6.7;14.8;20.8;24.9;26.7;25.5;20.8;13.7;5;-0.9;12.9;ASIA;Beijing;39.905;116.3914;CN;CHN;Beijing;primary;19433000;1156228865
China;Changsha;4.9;7.2;11.2;17.4;22.4;25.8;29.2;28.3;23.9;18.4;12.8;7.3;17.4;ASIA;Changsha;28.1987;112.9709;CN;CHN;Hunan;admin;7044118;1156961497
China;Changsha;4.9;7.2;11.2;17.4;22.4;25.8;29.2;28.3;23.9;18.4;12.8;7.3;17.4;ASIA;Changsha;22.3762;112.6877;CN;CHN;Guangdong;minor;699242;1156011120
China;Chongqing;8;10.1;14;18.8;22.8;25.3;28.5;28.6;24.3;18.7;14.3;9.3;18.6;ASIA;Chongqing;29.55;106.5069;CN;CHN;Chongqing;admin;7739000;1156936556
China;Guangzhou;13.9;15.2;18.1;22.4;25.8;27.8;28.9;28.8;27.5;24.7;20.1;15.5;22.4;ASIA;Guangzhou;23.1288;113.259;CN;CHN;Guangdong;admin;20902000;1156237133
China;Harbin;-17.6;-12.1;-2.7;7.7;15.4;21.4;23.3;21.8;15.4;6.8;-4.6;-14.4;5;ASIA;Harbin;45.75;126.6333;CN;CHN;Heilongjiang;admin;4458000;1156241528
China;Kunming;9.1;11.4;14.5;17.7;19.4;20.5;20.3;20;18.5;16;12.3;9.2;15.7;ASIA;Kunming;25.0433;102.7061;CN;CHN;Yunnan;admin;6250000;1156477539
China;Lhasa;-2.1;1.1;4.6;8.1;11.9;15.5;15.3;14.5;12.8;8.1;2.2;-1.7;7.6;ASIA;Lhasa;29.65;91.1;CN;CHN;Tibet;admin;902500;1156369972
China;Shanghai;4.6;6.1;9.6;15.1;20.3;24.1;28.4;28.1;24.4;19.3;13.4;7.1;16.7;ASIA;Shanghai;31.1667;121.4667;CN;CHN;Shanghai;admin;22120000;1156073548
China;Ürümqi;-12.1;-9.3;-0.5;10.4;17;21.8;23.9;22.7;17;8.4;-1.5;-9.4;7.4;ASIA;Urumqi;43.825;87.6;CN;CHN;Xinjiang;admin;3112559;1156051276
China;Xi'an;0.3;3.6;8.7;15.4;20.5;25.3;27;25.1;20.3;14.1;7;1.5;14.1;ASIA;;;;;;;;;
China;Yinchuan;-7.9;-3.8;3.2;11.2;17.3;21.5;23.5;21.6;16.3;9.2;1.4;-5.5;9;ASIA;Yinchuan;38.4795;106.2254;CN;CHN;Ningxia;admin;1616000;1156359072
East Timor;Dili;27.7;27.6;27.4;27.4;27;26.8;25.5;25.1;25.4;26;27.2;27.4;26.6;ASIA;;;;;;;;;
Georgia;Batumi;6;7;8;12;16;20;22;22;20;16;12;8;14;ASIA;Batumi;41.6458;41.6417;GE;GEO;Ajaria;admin;154600;1268193611
Georgia;Tbilisi;1.2;2.7;6.6;12.2;17.4;21.3;24.5;24.1;19.6;13.7;7.8;3.2;12.9;ASIA;Tbilisi;41.7225;44.7925;GE;GEO;Tbilisi;primary;1118035;1268203191
Hong Kong;Hong Kong;16.3;16.8;19.1;22.6;25.9;27.9;28.8;28.6;27.7;25.5;21.8;17.9;23.3;ASIA;Hong Kong;22.305;114.185;HK;HKG;;;7347000;1344982653
India;New Delhi;13.8;16.5;22.1;28.7;32.8;34;30.9;29.7;29;26.1;20.5;15.3;25;ASIA;New Delhi;28.7;77.2;IN;IND;Delhi;primary;142004;1356215164
India;Kolkata;20.1;22.8;27.6;30.5;31.3;30.4;29.1;28.8;28.8;27.5;23.7;20.3;26.7;ASIA;;;;;;;;;
India;Mumbai;23.7;24.5;26.8;28.4;29.9;29.2;27.6;27.2;27.3;28.3;27.2;25.2;27.1;ASIA;Mumbai;18.9667;72.8333;IN;IND;Mahārāshtra;admin;23355000;1356226629
Indonesia;Jakarta;26.1;26.1;26.4;27;27.2;26.7;26.4;26.7;27;27.2;27;26.4;26.7;ASIA;Jakarta;-6.2146;106.8451;ID;IDN;Jakarta;primary;34540000;1360771077
Indonesia;Denpasar;24.1;24.2;24;24.8;24.1;23.5;22.5;22.9;23;23.7;23.5;23.5;23.7;ASIA;Denpasar;-8.6667;115.2167;ID;IDN;Bali;admin;834881;1360848527
Indonesia;Jayapura;27.1;26.9;27.1;27.3;27.2;26.9;26.4;26.6;26.9;27.2;27.3;27;27;ASIA;Jayapura;-2.5333;140.7167;ID;IDN;Papua;admin;413283;1360517692
Indonesia;Makassar;26;26.3;27.4;27.6;26.9;26;25.6;26;26.7;27.5;27.7;26.1;26.7;ASIA;Makassar;-5.1331;119.4136;ID;IDN;Sulawesi Selatan;admin;1651146;1360051337
Indonesia;Medan;25.6;26.1;26.7;27.2;27.3;27.1;27;26.9;26.6;26.1;26;25.8;26.5;ASIA;Medan;3.6667;98.6667;ID;IDN;Sumatera Utara;admin;2210625;1360543171
Indonesia;Palembang;26.8;27.1;27.2;27.7;28;27.4;27;27.2;27.5;27.7;27.4;27;27.3;ASIA;Palembang;-2.9833;104.7644;ID;IDN;Sumatera Selatan;admin;1452456;1360902897
Indonesia;Pontianak;26.9;27.9;28.2;28.1;28;27.8;27.5;27.8;28.3;27.7;27.3;27.2;27.7;ASIA;Pontianak;-0.0206;109.3414;ID;IDN;Kalimantan Barat;admin;618388;1360992394
Indonesia;Surabaya;26.8;26.8;27;27.3;27.3;26.7;26.2;26.5;27.2;28.2;28.3;27.3;27.1;ASIA;Surabaya;-7.2458;112.7378;ID;IDN;Jawa Timur;admin;4975000;1360484663
Iraq;Baghdad;9.7;12;16.6;22.6;28.3;32.3;34.8;34;30.5;24.7;16.5;11.2;22.77;ASIA;Baghdad;33.35;44.4167;IQ;IRQ;Baghdād;primary;5796000;1368596238
Iraq;Erbil;6.2;8.1;12.2;17.4;23.6;28.9;32.9;32.1;28.2;21.4;14.1;8.3;19.5;ASIA;Erbil;36.1911;44.0094;IQ;IRQ;Arbīl;admin;852500;1368578192
Iran;Tehran;1;5;10;17;21;27;31;29;26;18;11;5;17;ASIA;Tehran;35.7;51.4167;IR;IRN;Tehrān;primary;13633000;1364305026
Iran;Ahvaz;12.3;14.7;19;24.9;31.1;35.2;37.3;36.7;33;27.3;19.8;14;25.4;ASIA;;;;;;;;;
Iran;Tabriz;-1.7;0.5;5.6;11.5;16.7;22.1;26;25.9;21.4;14.5;7.1;1.2;12.6;ASIA;;;;;;;;;
Israel;Tel Aviv;12;13;15;18;21;23;26;26;25;22;18;13;20;ASIA;;;;;;;;;
Japan;Sapporo;-3.6;-3.1;0.6;7.1;12.4;16.7;20.5;22.3;18.1;11.8;4.9;-0.9;8.9;ASIA;Sapporo;43.0621;141.3544;JP;JPN;Hokkaidō;admin;1958756;1392000195
Japan;Niigata;2.8;2.9;5.8;11.5;16.5;20.7;24.5;26.6;22.5;16.4;10.5;5.6;13.9;ASIA;Niigata;37.9161;139.0364;JP;JPN;Niigata;admin;796500;1392913753
Japan;Tokyo;5.2;5.7;8.7;13.9;18.2;21.4;25;26.4;22.8;17.5;12.1;7.6;15.4;ASIA;Tokyo;35.6897;139.6922;JP;JPN;Tōkyō;primary;37977000;1392685764
Japan;Kyoto;4.6;5.1;8.4;14.2;19;23;26.8;28.2;24.1;17.8;12.1;7;15.8;ASIA;;;;;;;;;
Japan;Hiroshima;5.2;6;9.1;14.7;19.3;23;27.1;28.2;24.4;18.3;12.5;7.5;16.3;ASIA;Hiroshima;34.3853;132.4553;JP;JPN;Hiroshima;admin;1306589;1392373695
Japan;Fukuoka;6.6;7.4;10.4;15.1;19.4;23;27.2;28.1;24.4;19.2;13.8;8.9;17;ASIA;Fukuoka;33.5903;130.4019;JP;JPN;Fukuoka;admin;2128000;1392576294
Japan;Naha;17;17.1;18.9;21.4;24;26.8;28.9;28.7;27.6;25.2;22.1;18.7;23.1;ASIA;Naha;26.2122;127.6789;JP;JPN;Okinawa;admin;317606;1392583118
Kazakhstan;Almaty;-4.7;-3;3.4;11.5;16.6;21.6;23.8;23;17.6;9.9;2.7;-2.8;10;ASIA;Almaty;43.25;76.9;KZ;KAZ;Almaty;;1806833;1398351701
Kazakhstan;Nur-Sultan;-14.2;-14.1;-7.1;5.2;13.9;19.5;20.8;18.8;12.3;4.6;-5.4;-12.1;3.5;ASIA;Nur-Sultan;51.1333;71.4333;KZ;KAZ;Astana;primary;1078362;1398516045
North Korea;Pyongyang;-5.8;2.4;4.4;11.2;17.1;21.7;24.3;24.6;19.6;12.5;4.7;-2.9;10.8;ASIA;;;;;;;;;
South Korea;Seoul;-2.4;0.4;5.7;12.5;17.8;22.2;24.9;25.7;21.2;14.8;7.2;0.4;12.5;ASIA;;;;;;;;;
Kuwait;Kuwait City;12.5;14.8;19.3;24.9;31.5;36;37.7;36.8;33.3;27.3;19.9;14.1;25.7;ASIA;Kuwait City;29.375;47.98;KW;KWT;Al ‘Āşimah;primary;637411;1414102075
Kyrgyzstan;Bishkek;-2.6;-0.8;5.3;12.3;17.4;22.4;24.9;23.8;18.5;11;4.7;-0.9;11.3;ASIA;Bishkek;42.8667;74.5667;KG;KGZ;Bishkek;primary;1027200;1417191971
Laos;Vientiane;21.7;24;26.7;28.5;27.7;27.7;27.5;27.2;27;26.4;24.3;21.7;25.9;ASIA;Vientiane;17.9667;102.6;LA;LAO;Viangchan;primary;760000;1418732714
Lebanon;Beirut;14;14;16;18.7;21.7;24.9;27.1;27.8;26.8;24.1;19.5;15.8;20.9;ASIA;Beirut;33.8869;35.5131;LB;LBN;Beyrouth;primary;361366;1422847713
Malaysia;Kuala Lumpur;26.9;27.3;27.6;27.7;28;27.9;27.4;27.5;27.2;27.1;26.8;26.7;27.3;ASIA;Kuala Lumpur;3.1478;101.6953;MY;MYS;Kuala Lumpur;primary;8285000;1458988644
Maldives;Malé;27.7;28;28.5;28.9;28.6;28.2;28;27.8;27.6;27.6;27.7;27.5;28;ASIA;;;;;;;;;
Mongolia;Ulaanbaatar;-21.6;-16.6;-7.4;2;10.1;15.7;18.2;16;9.6;0.5;-11.9;-19;-0.4;ASIA;Ulaanbaatar;47.9203;106.9172;MN;MNG;Ulaanbaatar;primary;1396288;1496024767
Myanmar;Mandalay;21.9;24.4;28.8;31.9;31.3;30.8;30.8;30.2;29.7;28.8;25.7;22.2;28;ASIA;;;;;;;;;
Myanmar;Yangon;25;26.3;28.6;30.6;29.6;27.4;26.9;26.9;27.4;27.9;27.4;25.4;27.5;ASIA;;;;;;;;;
Nepal;Kathmandu;10;11.9;16.1;19.2;21.8;23.8;24.1;24.1;23.3;19.1;14.8;11.3;18.3;ASIA;Kathmandu;27.7167;85.3667;NP;NPL;Bāgmatī;primary;975453;1524589448
Oman;Muscat;21;22;25;30;34;35;34;32;31;30;25;22;28;ASIA;Muscat;23.6139;58.5922;OM;OMN;Masqaţ;primary;1421409;1512035506
Pakistan;Karachi;18.1;20.2;24.5;28.3;30.5;31.4;30.3;28.9;28.9;27.9;23.9;19.5;26;ASIA;Karachi;24.86;67.01;PK;PAK;Sindh;admin;14835000;1586129469
Pakistan;Lahore;12.8;15.4;20.5;26.8;31.2;33.9;31.5;30.7;29.7;25.6;19.5;14.2;24.3;ASIA;Lahore;31.5497;74.3436;PK;PAK;Punjab;admin;11021000;1586801463
Philippines;Manila;26.7;27.4;28.7;30.1;30;29.3;28.5;28.3;28.4;28.4;28;27;28.4;ASIA;Manila;14.5958;120.9772;PH;PHL;Manila;primary;23088000;1608618140
Russia;Dikson;-24.8;-25.4;-22.1;-17.2;-7.8;0.4;4.9;5.5;1.6;-7.5;-17.5;-22.9;-11.1;ASIA;Dikson;73.507;80.5451;RU;RUS;Krasnoyarskiy Kray;;1113;1643554430
Russia;Irkutsk;-17.8;-14.4;-6.4;2.5;10.2;15.4;18.3;15.9;9.2;1.8;-7.6;-15.3;1;ASIA;Irkutsk;52.2833;104.3;RU;RUS;Irkutskaya Oblast’;admin;623736;1643439037
Russia;Novosibirsk;-16.5;-14.8;-7.6;2.3;11.8;17.1;19.4;16.6;10.2;3.1;-6.9;-14;1.7;ASIA;Novosibirsk;55.0333;82.9167;RU;RUS;Novosibirskaya Oblast’;admin;1602915;1643399240
Russia;"Petropavlovsk-
Kamchatsky";-7.6;-7.1;-4.6;-0.6;3.4;8.2;11.5;12.5;9.7;4.9;-1.3;-5.8;1.9;ASIA;;;;;;;;;
Russia;Vladivostok;-12.3;-8.4;-1.9;5.1;9.8;13.6;17.6;19.8;16;8.9;-0.9;-9.1;4.9;ASIA;Vladivostok;43.1167;131.9;RU;RUS;Primorskiy Kray;admin;606589;1643832017
Russia;Yakutsk;-38.6;-33.8;-20.1;-4.8;7.5;16.4;19.5;15.2;6.1;-7.8;-27;-37.6;-8.8;ASIA;Yakutsk;62.0272;129.7319;RU;RUS;Sakha (Yakutiya);admin;307911;1643163546
Saudi Arabia;Abha;13;14;16;18;21;23;23;22;21;18;15;13;18;ASIA;;;;;;;;;
Saudi Arabia;Riyadh;14;16;21;26;32;34;36;35;32;27;21;16;26;ASIA;Riyadh;24.65;46.71;SA;SAU;Ar Riyāḑ;primary;6881000;1682999334
Singapore;Singapore;27;27;28;28;28;28;28;28;27;27;27;26;27;ASIA;Singapore;1.3;103.8;SG;SGP;Central Singapore;primary;5745000;1702341327
Sri Lanka;Colombo;26.6;26.9;27.7;28.2;28.3;27.9;27.6;27.6;27.5;27;26.7;26.6;27.4;ASIA;Colombo;6.9167;79.8333;LK;LKA;Western;primary;752993;1144251314
Syria;Damascus;6.1;7.7;11.4;16.2;20.8;25;27.3;27;24;19;12.1;7.5;17;ASIA;Damascus;33.5131;36.2919;SY;SYR;Dimashq;primary;1754000;1760685964
Tajikistan;Dushanbe;2.1;3.8;9.2;15.4;20;25.3;27.1;24.9;20.1;14.3;8.9;4.8;14.7;ASIA;Dushanbe;38.5731;68.7864;TJ;TJK;Dushanbe;primary;780000;1762930616
Taiwan;Taipei;16.1;16.5;18.5;21.9;25.2;27.7;29.6;29.2;27.4;24.5;21.5;17.9;23;ASIA;Taipei;25.0478;121.5319;TW;TWN;Taipei;primary;2684567;1158881289
Thailand;Bangkok;27;28.3;29.5;30.5;29.9;29.5;29;28.8;28.3;28.1;27.8;26.5;28.6;ASIA;Bangkok;13.75;100.5167;TH;THA;Krung Thep Maha Nakhon;primary;17066000;1764068610
Thailand;Chiang Mai;21.5;23.9;27.1;29.3;28.2;27.6;27.2;26.8;26.7;26.1;24;21.4;25.8;ASIA;Chiang Mai;18.7889;98.9833;TH;THA;Chiang Mai;admin;132634;1764662886
Thailand;Hat Yai;26;26.7;27.6;28;27.8;27.7;27.4;27.4;26.9;26.5;26;25.6;27;ASIA;Hat Yai;7.0167;100.4667;TH;THA;Songkhla;minor;159130;1764161022
Thailand;Nakhon Ratchasima;24.3;26.9;28.9;30;29.1;29.1;28.6;28.1;27.4;26.7;25.4;23.6;27.3;ASIA;Nakhon Ratchasima;14.9736;102.0831;TH;THA;Nakhon Ratchasima;admin;134440;1764752197
Turkey;Ankara;0.4;1.9;6;11.3;16.1;20.1;23.6;23.4;18.8;13;7;2.6;12;ASIA;Ankara;39.93;32.85;TR;TUR;Ankara;primary;5503985;1792572891
Turkey;Erzurum;-10.2;-8.7;-2.7;5.1;10.2;14.1;18.4;18.7;13.9;7.5;0.4;-6.7;5.1;ASIA;Erzurum;39.9097;41.2756;TR;TUR;Erzurum;admin;767848;1792511957
Turkey;İzmir;8.9;9.5;11.7;15.9;20.8;25.6;28;27.7;23.7;18.8;14;10.6;17.9;ASIA;Izmir;38.4127;27.1384;TR;TUR;İzmir;admin;4320519;1792725579
Turkmenistan;Ashgabat;3.5;5.5;10.4;17.4;23.3;29;31.3;29.6;23.6;16.5;10.2;5.1;17.1;ASIA;Ashgabat;37.95;58.3833;TM;TKM;Ahal;primary;1031992;1795049992
"United Arab
Emirates";Dubai;18.7;19.3;22.3;26.1;29.9;32.2;34.4;34.4;32.1;28.7;24.3;20.6;26.9;ASIA;;;;;;;;;
Uzbekistan;Tashkent;1.9;3.9;9.4;15.5;20.5;25.8;27.8;26.2;20.6;13.9;8.5;3.5;14.8;ASIA;Tashkent;41.3;69.2667;UZ;UZB;Toshkent;primary;2424100;1860331871
Vietnam;Da Lat;15.8;16.7;17.8;18.9;19.3;19;18.6;18.5;18.4;18.1;17.3;16.2;17.9;ASIA;;;;;;;;;
Vietnam;Da Nang;21.5;22.3;24.2;26.4;28.3;29.2;29.3;29;27.5;25.9;24.1;22.1;25.8;ASIA;;;;;;;;;
Vietnam;Hanoi;16.4;17.2;20;23.9;27.4;28.9;29.2;28.6;27.5;24.9;21.5;18.2;23.6;ASIA;Hanoi;21.0245;105.8412;VN;VNM;Hà Nội;primary;7785000;1704413791
Vietnam;Ho Chi Minh City;26;26.8;28;29.2;28.8;27.8;27.5;27.4;27.2;27;26.7;26;27.4;ASIA;Ho Chi Minh City;10.8167;106.6333;VN;VNM;Hồ Chí Minh;admin;13312000;1704774326
Yemen;Aden;25.7;26;27.2;28.9;31;32.7;32.7;31.5;31.6;28.9;27.1;26;29.1;ASIA;Aden;12.8;45.0333;YE;YEM;‘Adan;admin;507355;1887867886
Yemen;Sana'a;16;18;20;20;22;23;24;23;22;18;16;15;20;ASIA;;;;;;;;;
Albania;Tirana;6.7;7.8;10;13.4;18;21.6;24;23.8;20.7;16;11.7;8.1;15.2;Europe;Tirana;41.33;19.82;AL;ALB;Tiranë;primary;418495;1008162156
Andorra;Andorra la Vella;2.2;3.5;5.8;7.5;11.5;15.4;18.8;18.5;14.9;10.3;5.7;3;9.8;Europe;Andorra la Vella;42.5;1.5;AD;AND;Andorra la Vella;primary;22151;1020828846
Austria;Vienna;0.3;1.5;5.7;10.7;15.7;18.7;20.8;20.2;15.4;10.2;5.1;1.1;10.4;Europe;Vienna;48.2083;16.3731;AT;AUT;Wien;primary;1840573;1040261752
Belarus;Minsk;-4.5;-4.4;0;7.2;13.3;16.4;18.5;17.5;12.1;6.6;0.6;-3.4;6.7;Europe;Minsk;53.9022;27.5618;BY;BLR;Minsk;primary;2020600;1112348503
Belgium;Bruxelles;3.3;3.7;6.8;9.8;13.6;16.2;18.4;18;14.9;11.1;6.8;3.9;10.5;Europe;Brussels;50.8467;4.3517;BE;BEL;Brussels-Capital Region;primary;185103;1056469830
Bosnia and Herzegovina;Sarajevo;-0.5;1.4;5.7;10;14.8;17.7;19.7;19.7;15.3;11;5.4;0.9;10.1;Europe;;;;;;;;;
Bulgaria;Sofia;-0.5;1.1;5.4;10.6;15.4;18.9;21.2;21;16.5;11.3;5.1;0.7;10.6;Europe;Sofia;42.6975;23.3241;BG;BGR;Sofia-Grad;primary;1355142;1100762037
Croatia;Zagreb;0.3;2.3;6.4;10.7;15.8;18.8;20.6;20.1;15.9;10.5;5;1.4;10.7;Europe;Zagreb;45.8;15.95;HR;HRV;Zagreb, Grad;primary;790017;1191233290
Croatia;Split;8;8.4;10.6;13.7;18.9;22.8;25.7;25.4;21.2;16.8;12;9.1;16.1;Europe;Split;43.51;16.45;HR;HRV;Splitsko-Dalmatinska Županija;admin;178102;1191440208
Cyprus;Nicosia;10.6;10.6;13.1;17.1;22.3;26.9;29.7;29.4;26.2;22.3;16.3;12;19.7;Europe;Nicosia;35.1725;33.365;CY;CYP;Lefkosía;primary;330000;1196944155
Czech Republic;Prague;-1.4;-0.4;3.6;8.4;13.4;16.1;18.2;17.8;13.5;8.5;3.1;-0.3;8.4;Europe;;;;;;;;;
Denmark;Copenhagen;1.4;1.4;3.5;7.7;12.5;15.6;18.1;17.7;13.9;9.8;5.5;2.5;9.1;Europe;Copenhagen;55.6786;12.5635;DK;DNK;Hovedstaden;primary;1085000;1208763942
Estonia;Tallinn;-3.3;-4.3;-1;4.5;10.1;14.1;17.2;16;11.3;6.5;1.3;-1.9;5.9;Europe;Tallinn;59.4372;24.745;EE;EST;Harjumaa;primary;434562;1233260021
Finland;Helsinki;-3.9;-4.7;-1.3;3.9;10.2;14.6;17.8;16.3;11.5;6.6;1.6;-2;5.9;Europe;Helsinki;60.1756;24.9342;FI;FIN;Uusimaa;primary;642045;1246177997
Finland;Kuopio;-9.2;-9.2;-4.1;2;9.1;14.5;17.5;15;9.7;4.1;-2;-6.7;3.4;Europe;Kuopio;62.8925;27.6783;FI;FIN;Pohjois-Savo;admin;112117;1246334067
Finland;Oulu;-9.6;-9.3;-4.8;1.4;7.8;13.5;16.5;14.1;8.9;3.3;-2.8;-7.1;2.7;Europe;Oulu;65.0142;25.4719;FI;FIN;Pohjois-Pohjanmaa;admin;200526;1246093273
France;Marseille;8.4;8.9;11.6;13.8;17.9;21.3;24.5;24.1;20.7;16.9;11.8;9.3;15.8;Europe;Marseille;43.2964;5.37;FR;FRA;Provence-Alpes-Côte d’Azur;admin;870018;1250774071
France;Paris;4.9;5.6;8.8;11.4;15.1;18.2;20.4;20.2;16.9;12.9;8.1;5.4;12.3;Europe;Paris;48.8566;2.3522;FR;FRA;Île-de-France;primary;11020000;1250015082
Germany;Berlin;0.6;2.3;5.1;10.2;14.8;17.9;20.3;19.7;15.3;10.5;6;1.3;10.3;Europe;Berlin;52.5167;13.3833;DE;DEU;Berlin;primary;3644826;1276451290
Germany;Frankfurt;1.6;2.4;6.4;10.3;14.7;17.8;20;19.5;15.2;10.4;5.6;2.5;10.6;Europe;Frankfurt;50.1136;8.6797;DE;DEU;Hesse;minor;753056;1276054552
Greece;Piraeus;11.1;11.2;13.3;16.9;21.4;26.3;29;28.8;25.2;20.6;15.8;12.6;19.4;Europe;Piraeus;37.95;23.7;GR;GRC;Attikí;minor;466065;1300458367
Hungary;Budapest;0.4;2.3;6.1;12;16.6;19.7;21.5;21.2;16.9;11.8;5.4;1.8;11.3;Europe;Budapest;47.4983;19.0408;HU;HUN;Budapest;primary;1752286;1348611435
Iceland;Reykjavík;-0.5;0.4;0.5;2.9;6.3;9;10.6;10.3;7.4;4.4;1.1;-0.2;4.3;Europe;Reykjavik;64.1475;-21.935;IS;ISL;;primary;128793;1352327190
Ireland;Dublin;5.3;5.3;6.8;8.3;10.9;13.6;15.6;15.3;13.4;10.5;7.4;5.6;9.8;Europe;Dublin;53.3425;-6.2658;IE;IRL;Dublin;primary;1173179;1372595407
Italy;Milan;2.5;4.7;9;12.2;17;20.8;23.6;23;19.2;13.4;7.2;3.3;13;Europe;Milan;45.4669;9.19;IT;ITA;Lombardy;admin;1351562;1380724377
Italy;Palermo;12.5;12.6;13.5;15.7;18.9;22.4;25.6;26.2;24.1;20.3;16.8;13.7;18.5;Europe;Palermo;38.1157;13.3613;IT;ITA;Sicilia;admin;674435;1380428434
Italy;Rome;7.5;8.2;10.2;12.6;17.2;21.1;24.1;24.5;20.8;16.4;11.4;8.4;15.2;Europe;Rome;41.8931;12.4828;IT;ITA;Lazio;primary;2872800;1380382862
Italy;Napoli;8.7;8.8;11.1;13.2;17.8;21.4;24.3;24.7;21.4;17.1;12.4;9.8;15.9;Europe;;;;;;;;;
Latvia;Riga;-4.7;-4.2;0.5;5.1;11.4;15.5;16.9;16.2;12;7.4;2.1;-2.3;6.2;Europe;Riga;56.9475;24.1069;LV;LVA;Rīga;primary;698529;1428586192
Liechtenstein;Vaduz;0.8;2.1;6.3;9.9;14.4;17.1;19;18.4;14.9;10.9;5.2;1.9;10.1;Europe;Vaduz;47.1415;9.5215;LI;LIE;Vaduz;primary;36281;1438317747
Lithuania;Vilnius;-6.1;-4.8;-0.6;5.7;12.5;15.8;16.9;16.3;11.6;6.6;1.2;-2.9;6;Europe;Vilnius;54.6833;25.2833;LT;LTU;Vilniaus Miestas;primary;574147;1440887149
Luxembourg;Luxembourg City;0.8;1.6;5.2;8.7;13;15.9;18.2;17.7;13.9;9.5;4.7;1.8;9.3;Europe;;;;;;;;;
Macedonia;Skopje;0.1;2.6;7.6;12.1;17.3;21.5;23.8;23.8;18.8;13.1;6.5;1.7;12.4;Europe;Skopje;41.9833;21.4333;MK;MKD;Skopje;primary;640000;1807600615
Malta;Valletta;12.8;12.8;13.3;15.6;18.9;22.8;26.1;26.7;23.9;21.1;17.2;13.9;18.8;Europe;Valletta;35.8978;14.5125;MT;MLT;Valletta;primary;6444;1470574399
Moldova;Chișinău;-1.9;-0.8;3.7;10.4;16.5;19.9;22.1;21.7;16.3;10.5;4.1;-0.6;10.2;Europe;;;;;;;;;
Monaco;Monaco;10.2;10.2;12;13.8;17.5;20.9;23.8;24.2;21.1;17.9;13.8;11.2;16.4;Europe;Monaco;43.7396;7.4069;MC;MCO;;primary;36371;1492854256
Montenegro;Podgorica;5;6.8;10;13.9;19;22.8;26;25.6;21.4;15.9;10.5;6.5;15.3;Europe;Podgorica;42.4397;19.2661;ME;MNE;Podgorica;primary;174515;1499454516
Netherlands;Amsterdam;3.4;3.5;6.1;9.1;12.9;15.4;17.6;17.5;14.7;11;7.1;4;10.2;Europe;Amsterdam;52.35;4.9166;NL;NLD;Noord-Holland;primary;1031000;1528355309
Norway;Bergen;1.5;1.6;3.3;5.9;10.5;13.5;14.5;14.4;11.5;8.7;4.7;2.6;7.7;Europe;Bergen;60.3925;5.3233;NO;NOR;Hordaland;admin;257087;1578465701
Norway;Oslo;-4.3;-4;-0.2;4.5;10.8;15.2;16.4;15.2;10.8;6.3;0.7;-3.1;5.7;Europe;Oslo;59.9111;10.7528;NO;NOR;Oslo;primary;693494;1578324706
Norway;Tromsø;-3.8;-3.7;-2.3;0.7;5.1;9.2;11.8;10.9;6.9;3.2;-0.6;-2.7;2.9;Europe;Tromso;69.6489;18.9551;NO;NOR;Troms;admin;38980;1578188822
Poland;Cracow;-1;0.4;4.1;9.8;14.6;18.3;20;19.2;14.1;9.2;4.4;0.2;9.3;Europe;;;;;;;;;
Poland;Suwałki;-3.3;-2.6;0.9;7.3;12.6;15.9;18.1;17.4;12.5;7;2.3;-1.6;7.2;Europe;Suwalki;54.0833;22.9333;PL;POL;Podlaskie;minor;69626;1616523627
Poland;Warsaw;-1.8;-0.6;2.8;8.7;14.2;17;19.2;18.3;13.5;8.5;3.3;-0.7;8.5;Europe;Warsaw;52.2167;21.0333;PL;POL;Mazowieckie;primary;1790658;1616024847
Poland;Wrocław;0;1.1;4.3;9.7;14.3;17.7;19.7;19.3;14.5;9.6;4.8;1.1;9.6;Europe;Wroclaw;51.1077;17.0353;PL;POL;Dolnośląskie;admin;638586;1616108520
Portugal;Lisbon;11.6;12.7;14.9;15.9;18;21.2;23.1;23.5;22.1;18.8;15;12.4;17.5;Europe;Lisbon;38.7452;-9.1604;PT;PRT;Lisboa;primary;506654;1620619017
Romania;Bucharest;-1.3;0.4;5.4;11.2;16.8;20.6;22.5;22;16.9;11;4.7;0.2;10.8;Europe;Bucharest;44.4;26.0833;RO;ROU;Bucureşti;primary;1883425;1642414442
Russia;Arkhangelsk;-12.7;-11.4;-5.5;0.4;6.9;13;16.3;13.1;8.2;2.3;-5.1;-9.8;1.3;Europe;Arkhangelsk;64.55;40.5333;RU;RUS;Arkhangel’skaya Oblast’;admin;351488;1643797198
Russia;Moscow;-6.5;-6.7;-1;6.7;13.2;17;19.2;17;11.3;5.6;-1.2;-5.2;5.8;Europe;Moscow;55.7558;37.6178;RU;RUS;Moskva;primary;17125000;1643318494
Russia;Murmansk;-10.1;-9.7;-5.5;-0.7;4;9.2;12.8;11.1;7;1.5;-4.8;-8.2;0.6;Europe;Murmansk;68.9667;33.0833;RU;RUS;Murmanskaya Oblast’;admin;298096;1643755251
Russia;Rostov-on-Don;-3;-2.8;2.4;10.6;16.6;21;23.4;22.6;16.7;10;2.9;-1.6;9.9;Europe;;;;;;;;;
Russia;Saint Petersburg;-5.5;-5.8;-1.3;5.1;11.3;15.7;18.8;16.9;11.6;6.2;0.1;-3.7;5.8;Europe;Saint Petersburg;59.95;30.3167;RU;RUS;Sankt-Peterburg;admin;5351935;1643616350
Russia;Sochi;6.1;6;8.2;12.1;16;20.2;23.2;23.6;20;15.8;11.1;8.1;14.2;Europe;Sochi;43.5853;39.7203;RU;RUS;Krasnodarskiy Kray;;411524;1643009782
San Marino;City of San Marino;2.7;4.2;6.4;10.1;14.6;18.5;21.3;21.4;17.8;12.8;8;4.2;11.8;Europe;;;;;;;;;
Serbia;Belgrade;1.4;3.1;7.6;12.9;18.1;21;23;22.7;18;12.9;7.1;2.7;12.5;Europe;Belgrade;44.8167;20.4667;RS;SRB;Beograd;primary;1378682;1688374696
Slovakia;Bratislava;-0.4;1.2;5.5;11;16;19.1;21.3;20.7;15.9;10.4;4.9;0.7;10.5;Europe;Bratislava;48.1447;17.1128;SK;SVK;Bratislavský;primary;429564;1703195001
Slovenia;Ljubljana;0.3;1.9;6.5;10.8;15.8;19.1;21.3;20.6;16;11.2;5.6;1.2;10.9;Europe;Ljubljana;46.05;14.5167;SI;SVN;Ljubljana;primary;284355;1705917455
Spain;Barcelona;11.8;12.4;14.2;15.8;19.3;23;25.7;26.1;23;19.5;14.9;12.3;18.2;Europe;Barcelona;41.3825;2.1769;ES;ESP;Catalonia;admin;4588000;1724594040
Spain;Las Palmas de Gran Canaria;18.1;18.4;19.3;19.5;20.5;22.2;23.8;24.6;24.3;23.1;21.2;19.3;21.2;Europe;;;;;;;;;
Spain;Madrid;6.3;7.9;11.2;12.9;16.7;22.2;25.6;25.1;20.9;15.1;9.9;6.9;15;Europe;Madrid;40.4189;-3.6919;ES;ESP;Madrid;primary;3266126;1724616994
Spain;Seville;11;12.5;15.6;17.3;20.7;25.1;28.2;27.9;25;20.2;15.1;11.9;19.2;Europe;;;;;;;;;
Spain;Valencia;11.8;12.5;14.6;16.2;19;22.9;25.6;26.1;23.5;19.7;15.3;12.6;18.3;Europe;Valencia;39.4667;-0.375;ES;ESP;Valencia;admin;794288;1724981666
Sweden;Stockholm;-2.8;-3;0.1;4.6;10.7;15.6;17.2;16.2;11.9;7.5;2.6;-1;6.6;Europe;Stockholm;59.3294;18.0686;SE;SWE;Stockholm;primary;972647;1752425602
Switzerland;Zürich;0.3;1.3;5.3;8.8;13.3;16.4;18.6;18;14.1;9.9;4.4;1.4;9.3;Europe;Zurich;47.3786;8.54;CH;CHE;Zürich;admin;434008;1756539143
Turkey;Istanbul;5.7;5.7;7;11.1;15.7;20.4;22.9;23.1;19.8;15.6;11.5;8;13.9;Europe;Istanbul;41.01;28.9603;TR;TUR;İstanbul;admin;15154000;1792756324
Ukraine;Kiev;-3.5;-3;1.8;9.3;15.5;18.5;20.5;19.7;14.2;8.4;1.9;-2.3;8.4;Europe;;;;;;;;;
Ukraine;Lviv;-3.1;-2.2;1.9;8.3;13.8;16.4;18.3;17.7;13;8.1;2.6;-1.8;7.8;Europe;Lviv;49.8419;24.0315;UA;UKR;L’vivs’ka Oblast’;admin;724314;1804939658
Ukraine;Odessa;-0.5;-0.2;3.5;9.4;15.6;20;22.6;22.3;17.2;11.6;5.7;1.1;10.7;Europe;;;;;;;;;
United Kingdom;Edinburgh;4.2;4.5;6.2;8.1;10.8;13.5;15.3;15.2;13;9.8;6.7;4.2;9.3;Europe;Edinburgh;55.953;-3.189;GB;GBR;Edinburgh, City of;;488050;1826492520
United Kingdom;London;4.3;4.5;6.9;8.7;12.1;15.1;17.3;17;14.3;10.9;7.2;4.7;10.3;Europe;London;51.5072;-0.1275;GB;GBR;London, City of;primary;10979000;1826645935
Antigua and Barbuda;St. John's;25.4;25.2;25.6;26.3;27.2;27.9;28.2;28.3;28.1;27.5;26.8;25.9;26.9;North America;;;;;;;;;
Aruba;Oranjestad;26.7;26.8;27.2;27.9;28.5;28.7;28.6;29.1;29.2;28.7;28.1;27.2;28.1;North America;Oranjestad;12.5186;-70.0358;AW;ABW;;;34980;1533513057
The Bahamas;Nassau;21.1;21.1;22.2;23.4;25.3;26.9;27.9;27.9;27.3;25.9;23.8;21.9;24.6;North America;;;;;;;;;
Barbados;Bridgetown;25.8;25.7;26.2;26.8;27.6;27.7;27.6;27.8;27.7;27.5;27;26.4;27;North America;Bridgetown;13.0975;-59.6167;BB;BRB;Saint Michael;primary;110000;1052274244
Belize;Belize City;24;24.9;25.9;27.3;28.3;28.5;28.1;28.2;28;27;25.6;24.5;26.7;North America;Belize City;17.4986;-88.1886;BZ;BLZ;Belize;admin;57169;1084150679
Bermuda;Hamilton;18.3;18;18.2;19.6;22;25;27.2;27.6;26.6;24.4;21.6;19.5;22.3;North America;Hamilton;32.2942;-64.7839;BM;BMU;Hamilton;;52320;1060000000
Canada;Calgary;-7.1;-5.4;-1.6;4.6;9.7;13.7;16.5;15.8;11;5.2;-2.4;-6.8;4.4;North America;Calgary;51.05;-114.0667;CA;CAN;Alberta;;1239220;1124690423
Canada;Edmonton;-10.4;-7.6;-2.5;5.4;11.5;15.5;17.7;16.9;11.4;5.1;-4.1;-8.8;4.2;North America;Edmonton;53.5344;-113.4903;CA;CAN;Alberta;;1062643;1124290735
Canada;Gjoa Haven;-33.8;-34;-28.9;-20.4;-9.4;1.4;8;5.8;0.1;-9.5;-22.4;-29.9;-14.4;North America;;;;;;;;;
Canada;Halifax;-4.1;-3.6;-0.2;4.9;10.1;15.2;18.8;19.1;15.5;9.9;4.8;-0.8;7.5;North America;Halifax;44.6475;-63.5906;CA;CAN;Nova Scotia;;403131;1124130981
Canada;Iqaluit;-26.9;-27.5;-23.2;-14.2;-4.4;3.6;8.2;7.1;2.6;-3.7;-12;-21.3;-9.3;North America;Iqaluit;63.7598;-68.5107;CA;CAN;Nunavut;;7740;1124379539
Canada;Moncton;-8.2;-7;-2.3;4.2;10.7;16;19.5;19;14.5;8.3;2.5;-4.3;6.1;North America;Moncton;46.1328;-64.7714;CA;CAN;New Brunswick;;108620;1124521303
Canada;Montreal;-9.7;-7.7;-2;6.4;13.4;18.6;21.2;20.1;15.5;8.5;2.1;-5.4;6.8;North America;;;;;;;;;
Canada;Ottawa;-10.2;-7.9;-2.2;6.5;13.5;18.7;21.2;19.9;15.3;8.4;2;-5.6;6.6;North America;Ottawa;45.4247;-75.695;CA;CAN;Ontario;;989567;1124399363
Canada;Saskatoon;-13.9;-11.4;-4.9;5.2;11.8;16.1;19;18.2;12;4.4;-5.2;-12.4;3.3;North America;Saskatoon;52.1333;-106.6833;CA;CAN;Saskatchewan;;246376;1124612546
Canada;St. John's;-4.5;-4.9;-2.6;1.9;6.4;10.9;15.8;16.1;12.4;7.4;3;-1.5;5;North America;St. John's;47.4817;-52.7971;CA;CAN;Newfoundland and Labrador;;108860;1124741456
Canada;Toronto;-3.7;-2.6;1.4;7.9;14.1;19.4;22.3;21.5;17.2;10.7;4.9;-0.5;9.4;North America;Toronto;43.7417;-79.3733;CA;CAN;Ontario;;5429524;1124279679
Canada;Vancouver;4.1;4.9;6.9;9.4;12.8;15.7;18;18;14.9;10.3;6.3;3.6;10.4;North America;Vancouver;49.25;-123.1;CA;CAN;British Columbia;;2264823;1124825478
Canada;Winnipeg;-16.4;-13.2;-5.8;4.4;11.6;17;19.7;18.8;12.7;5;-4.9;-13.2;3;North America;Winnipeg;49.8844;-97.1464;CA;CAN;Manitoba;;705244;1124224963
Canada;Whitehorse;-15.2;-12.7;-6.3;1;7.3;12.3;14.3;12.6;7.2;0.5;-9.4;-12.5;-0.1;North America;Whitehorse;60.7029;-135.0691;CA;CAN;Yukon;;25085;1124348186
Canada;Yellowknife;-25.6;-22.9;-16.8;-5.3;4.6;13.3;17;14.2;7.2;-1.7;-13.7;-21.8;-4.3;North America;Yellowknife;62.4709;-114.4053;CA;CAN;Northwest Territories;;19569;1124208917
Cayman Islands;George Town;25.8;26.1;26.6;27.6;28.5;29.2;29.6;29.7;29.3;28.5;27.5;26.2;27.9;North America;George Town;19.2866;-81.3744;KY;CYM;;;27704;1136159124
Costa Rica;San José;22.6;23;23.5;23.7;22.9;22.5;22.6;22.4;22;21.8;21.9;22.3;22.6;North America;San Jose;9.9333;-84.0833;CR;CRI;San José;primary;288054;1188749877
Cuba;La Habana;22.2;22.4;23.7;24.8;26.1;27;27.6;27.9;27.4;26.1;24.5;23;25.2;North America;Havana;23.1367;-82.3589;CU;CUB;La Habana;primary;2141652;1192752771
Curaçao;Willemstad;26.6;26.7;27.2;27.8;28.4;28.6;28.5;28.9;29.1;28.6;28;27.2;28;North America;Willemstad;12.1167;-68.9333;CW;CUW;;;150000;1531000000
Dominica;Roseau;24.9;24.8;25.1;25.8;26.6;27.3;27.4;27.4;27.1;26.1;26.2;25.4;26.2;North America;Roseau;15.3;-61.3833;DM;DMA;Saint George;primary;16582;1212060440
Dominican Republic;Santo Domingo;24.4;24.4;24.9;25.6;26.3;26.9;27;27.1;27;26.7;26;24.9;25.9;North America;Santo Domingo;18.4764;-69.8933;DO;DOM;Ozama;primary;2581827;1214636202
Greenland;Nuuk;-7.4;-7.8;-8;-3.8;0.6;3.9;6.5;6.1;3.5;-0.7;-3.7;-6.2;-1.4;North America;Nuuk;64.175;-51.7333;GL;GRL;Sermersooq;;18326;1304028354
Honduras;La Ceiba;23.8;24;25.6;26.8;28.2;28;27.5;27.6;27.4;26.2;25.2;24.3;26.2;North America;La Ceiba;15.7631;-86.797;HN;HND;Atlántida;admin;145926;1340870189
Honduras;Tegucigalpa;19.5;20.4;22.1;23.4;23.6;22.6;22.1;22.4;22.2;21.5;20.4;19.7;21.7;North America;Tegucigalpa;14.0942;-87.2067;HN;HND;Francisco Morazán;primary;1126534;1340344059
Jamaica;Kingston;25.8;25.9;26.4;26.9;27.8;28.5;28.9;28.7;28.4;27.7;27.2;26.7;27.4;North America;Kingston;17.9714;-76.7931;JM;JAM;Kingston;primary;580000;1388709177
Mexico;Cabo San Lucas;19.2;19.3;20.2;22.2;23.8;25.3;28.1;29;28.4;26.7;23.5;20.6;23.9;North America;Cabo San Lucas;22.8897;-109.9156;MX;MEX;Baja California Sur;;81111;1484694325
Mexico;Chihuahua;10;12.9;15.7;19.2;23.6;26.3;25.6;24.3;22.6;18.7;13.7;10.3;18.6;North America;Chihuahua;28.6353;-106.0889;MX;MEX;Chihuahua;admin;878062;1484335603
Mexico;Guadalajara;17.1;18.4;20.7;22.8;24.5;23.9;22;21.9;21.8;21;19.2;17.5;20.9;North America;Guadalajara;20.6767;-103.3475;MX;MEX;Jalisco;admin;5253000;1484950208
Mexico;La Paz;17.4;18.1;19.7;22.1;24.5;27.1;29.7;30.2;29.3;26.2;22;18.6;23.7;North America;La Paz;24.1422;-110.3108;MX;MEX;Baja California Sur;admin;244219;1484005187
Mexico;Mexicali;13.1;15.3;18;21.3;25.8;30.5;33.9;33.5;30.4;24.3;17.5;13.1;23.1;North America;Mexicali;32.6633;-115.4678;MX;MEX;Baja California;admin;1102342;1484788702
Mexico;Mexico City;14.6;15.9;18.1;19.6;20;19.4;18.2;18.3;18;17.1;16.3;15;17.5;North America;Mexico City;19.4333;-99.1333;MX;MEX;Ciudad de México;primary;20996000;1484247881
Mexico;Monterrey;14.4;16.6;20;23.4;26.2;27.9;28.6;28.5;26.2;22.4;18.4;15.1;22.3;North America;Monterrey;25.6667;-100.3;MX;MEX;Nuevo León;admin;4295000;1484559591
Mexico;Tijuana;13.6;14.3;14.8;16.1;18;19.8;22.2;22.8;22;19.5;16.6;14;17.8;North America;Tijuana;32.525;-117.0333;MX;MEX;Baja California;minor;2384609;1484708778
Mexico;Toluca;8.9;10.1;11.8;13.5;14.7;14.8;14;14;13.9;12.4;10.8;9.5;12.4;North America;Toluca;19.2925;-99.6569;MX;MEX;México;admin;819561;1484124846
Mexico;Veracruz;21.5;21.9;24;25.8;27.8;28.1;27.5;27.6;27.2;26.2;24.2;22.6;25.4;North America;Veracruz;19.1903;-96.1533;MX;MEX;Veracruz;minor;552156;1484992153
Mexico;Villahermosa;23.6;24.5;26.6;28.5;29.6;29.3;28.9;28.9;28.4;27.1;25.7;24.1;27.1;North America;Villahermosa;17.9892;-92.9281;MX;MEX;Tabasco;admin;640359;1484460894
Nicaragua;Managua;26.3;27.2;28.5;29.3;29.3;27.2;26.8;27.2;26.8;26.5;26.3;26.2;27.3;North America;Managua;12.15;-86.2667;NI;NIC;Managua;primary;1028808;1558296252
Panama;Panama City;28;28;28;28;28;27;27;27;27;27;27;27;28;North America;Panama City;9;-79.5;PA;PAN;Panamá;primary;880691;1591672475
El Salvador;San Salvador;22.2;22.8;23.8;24.5;24.2;23.3;23.3;23.2;22.8;22.8;22.4;22;23.1;North America;San Salvador;13.6989;-89.1914;SV;SLV;San Salvador;primary;567698;1222647454
Puerto Rico;San Juan;25.3;25.5;26.1;26.8;27.7;28.5;28.6;28.7;28.6;28.1;27;24.8;27.2;North America;San Juan;18.4037;-66.0636;PR;PRI;Puerto Rico;;331165;1630035577
"Saint Pierre
and Miquelon";Saint-Pierre;-2.6;-3.2;-1.4;2;5.6;9.6;14.1;16.2;13.5;8.9;4.5;0.4;5.7;North America;;;;;;;;;
United States;Albuquerque;2.4;5.2;8.9;13.3;18.7;23.8;25.7;24.6;20.7;14.2;7.2;2.4;14;North America;Albuquerque;35.1053;-106.6464;US;USA;New Mexico;;761195;1840019176
United States;Anchorage;-8.3;-6.6;-3;2.7;8.8;12.9;14.9;13.7;9.2;1.6;-5.4;-7.2;2.8;North America;Anchorage;61.1508;-149.1091;US;USA;Alaska;;247949;1840023385
United States;Atlanta;6.4;8.6;12.6;16.7;21.3;25.2;26.9;26.4;23.1;17.4;12.3;7.5;17;North America;Atlanta;33.7627;-84.4224;US;USA;Georgia;admin;5449398;1840013660
United States;Atlanta;6.4;8.6;12.6;16.7;21.3;25.2;26.9;26.4;23.1;17.4;12.3;7.5;17;North America;Atlanta;33.1136;-94.1672;US;USA;Texas;;5526;1840019407
United States;Austin;10.8;12.8;16.5;20.7;24.8;27.9;29.4;29.9;26.7;21.8;16.1;11.4;20.7;North America;Austin;30.3004;-97.7522;US;USA;Texas;admin;1687311;1840019590
United States;Austin;10.8;12.8;16.5;20.7;24.8;27.9;29.4;29.9;26.7;21.8;16.1;11.4;20.7;North America;Austin;43.6718;-92.9783;US;USA;Minnesota;;25626;1840006830
United States;Baltimore;0.8;2.4;6.8;12.4;17.6;22.8;25.3;24.3;20.2;13.7;8.3;2.9;13.1;North America;Baltimore;39.3051;-76.6144;US;USA;Maryland;;2106068;1840001592
United States;Boise;-0.4;2.5;6.9;10.4;15.1;19.7;24.3;23.7;18.3;11.6;4.4;-0.7;11.4;North America;Boise;43.6007;-116.2312;US;USA;Idaho;admin;389280;1840027142
United States;Boston;-1.5;0;3.7;9.1;14.6;20;23.2;22.4;18.4;12.4;7.2;1.7;10.9;North America;Boston;42.3188;-71.0846;US;USA;Massachusetts;admin;4688346;1840000455
United States;Boston;-1.5;0;3.7;9.1;14.6;20;23.2;22.4;18.4;12.4;7.2;1.7;10.9;North America;Boston;42.6528;-78.7555;US;USA;New York;;8029;1840023297
United States;Charlotte;5.1;7.2;11.3;15.8;20.3;24.7;26.4;25.8;22.2;16.3;11.1;6.3;16.1;North America;Charlotte;35.208;-80.8304;US;USA;North Carolina;;1512923;1840014557
United States;Charlotte;5.1;7.2;11.3;15.8;20.3;24.7;26.4;25.8;22.2;16.3;11.1;6.3;16.1;North America;Charlotte;42.5662;-84.8304;US;USA;Michigan;;12703;1840003107
United States;Chicago;-4.6;-2.4;3.2;9.4;15;20.5;23.3;22.4;18.1;11.4;4.6;-2.4;9.8;North America;Chicago;41.8373;-87.6862;US;USA;Illinois;;8604203;1840000494
United States;Columbus;-1.6;0.2;5.3;11.5;16.8;21.8;23.8;23.1;19.1;12.6;6.7;0.6;11.7;North America;Columbus;39.9862;-82.985;US;USA;Ohio;admin;1562009;1840003760
United States;Columbus;-1.6;0.2;5.3;11.5;16.8;21.8;23.8;23.1;19.1;12.6;6.7;0.6;11.7;North America;Columbus;32.51;-84.8771;US;USA;Georgia;;261445;1840014887
United States;Columbus;-1.6;0.2;5.3;11.5;16.8;21.8;23.8;23.1;19.1;12.6;6.7;0.6;11.7;North America;Columbus;39.2093;-85.9183;US;USA;Indiana;;59897;1840013714
United States;Columbus;-1.6;0.2;5.3;11.5;16.8;21.8;23.8;23.1;19.1;12.6;6.7;0.6;11.7;North America;Columbus;33.5088;-88.4096;US;USA;Mississippi;;31084;1840014807
United States;Columbus;-1.6;0.2;5.3;11.5;16.8;21.8;23.8;23.1;19.1;12.6;6.7;0.6;11.7;North America;Columbus;41.4368;-97.3563;US;USA;Nebraska;;23463;1840003345
United States;Columbus;-1.6;0.2;5.3;11.5;16.8;21.8;23.8;23.1;19.1;12.6;6.7;0.6;11.7;North America;Columbus;43.3354;-89.03;US;USA;Wisconsin;;6793;1840002708
United States;Dallas;7.7;9.9;14.2;18.6;23.3;27.4;29.7;29.8;25.6;19.8;13.7;8.4;19;North America;Dallas;32.7936;-96.7662;US;USA;Texas;;5743938;1840019440
United States;Dallas;7.7;9.9;14.2;18.6;23.3;27.4;29.7;29.8;25.6;19.8;13.7;8.4;19;North America;Dallas;44.9222;-123.3131;US;USA;Oregon;;17859;1840018590
United States;Dallas;7.7;9.9;14.2;18.6;23.3;27.4;29.7;29.8;25.6;19.8;13.7;8.4;19;North America;Dallas;33.9153;-84.8416;US;USA;Georgia;;13981;1840014757
United States;Dallas;7.7;9.9;14.2;18.6;23.3;27.4;29.7;29.8;25.6;19.8;13.7;8.4;19;North America;Dallas;41.3604;-75.9662;US;USA;Pennsylvania;;9230;1840000745
United States;Denver;-0.3;0.8;4.8;8.9;14.2;19.7;23.4;22.3;17.3;10.4;3.8;-0.9;10.4;North America;Denver;39.7621;-104.8759;US;USA;Colorado;admin;2876625;1840018789
United States;Detroit;-3.7;-2.3;2.7;9.4;15.2;20.7;23;22.1;17.9;11.2;5.2;-1.2;10;North America;Detroit;42.3834;-83.1024;US;USA;Michigan;;3506126;1840003971
United States;El Paso;7.3;10.1;13.7;18.2;23.3;27.7;28.2;27.3;24.1;18.4;11.7;7.2;18.1;North America;El Paso;31.8479;-106.4309;US;USA;Texas;;843386;1840023252
United States;Fairbanks;-21.9;-18.3;-11.2;0.5;9.9;16;17.1;13.6;7.3;-4.2;-16.2;-19.8;-2.3;North America;Fairbanks;64.8353;-147.6534;US;USA;Alaska;;63245;1840023463
United States;Fresno;8.1;10.8;13.7;16.7;21.2;25.1;28.3;27.6;24.6;19;12.4;8.1;17.9;North America;Fresno;36.7831;-119.7941;US;USA;California;;703498;1840020319
United States;Fresno;8.1;10.8;13.7;16.7;21.2;25.1;28.3;27.6;24.6;19;12.4;8.1;17.9;North America;Fresno;29.5358;-95.4696;US;USA;Texas;;24607;1840018266
United States;Houston;11.5;13.3;16.9;20.7;24.8;27.7;28.9;29;26.3;21.7;16.6;12.3;20.8;North America;Houston;29.7863;-95.3889;US;USA;Texas;;5464251;1840020925
United States;Indianapolis;-2.2;0.1;5.7;11.8;17.2;22.3;24.2;23.5;19.5;12.9;6.6;-0.1;11.8;North America;Indianapolis;39.7771;-86.1458;US;USA;Indiana;admin;1588961;1840030084
United States;Jacksonville;11.7;13.6;16.5;19.4;23.4;26.7;27.9;27.6;25.7;21.3;16.8;12.9;20.3;North America;Jacksonville;30.3322;-81.6749;US;USA;Florida;;1181496;1840015031
United States;Jacksonville;11.7;13.6;16.5;19.4;23.4;26.7;27.9;27.6;25.7;21.3;16.8;12.9;20.3;North America;Jacksonville;34.7288;-77.3941;US;USA;North Carolina;;108856;1840014653
United States;Jacksonville;11.7;13.6;16.5;19.4;23.4;26.7;27.9;27.6;25.7;21.3;16.8;12.9;20.3;North America;Jacksonville;34.8807;-92.1302;US;USA;Arkansas;;28235;1840014633
United States;Jacksonville;11.7;13.6;16.5;19.4;23.4;26.7;27.9;27.6;25.7;21.3;16.8;12.9;20.3;North America;Jacksonville;39.7292;-90.2318;US;USA;Illinois;;21685;1840008438
United States;Jacksonville;11.7;13.6;16.5;19.4;23.4;26.7;27.9;27.6;25.7;21.3;16.8;12.9;20.3;North America;Jacksonville;31.9642;-95.2617;US;USA;Texas;;14337;1840019515
United States;Jacksonville;11.7;13.6;16.5;19.4;23.4;26.7;27.9;27.6;25.7;21.3;16.8;12.9;20.3;North America;Jacksonville;33.8088;-85.7545;US;USA;Alabama;;12544;1840007433
United States;Kansas City;-1.8;0.8;6.8;12.7;18.1;23.1;25.7;25;20.1;13.5;6.4;-0.3;12.5;North America;Kansas City;39.1239;-94.5541;US;USA;Missouri;;1636715;1840008535
United States;Kansas City;-1.8;0.8;6.8;12.7;18.1;23.1;25.7;25;20.1;13.5;6.4;-0.3;12.5;North America;Kansas City;39.1234;-94.7443;US;USA;Kansas;;152960;1840001626
United States;Las Vegas;8.8;11.1;15;19.1;24.7;29.9;33.2;32.1;27.6;20.4;13.1;8.2;20.3;North America;Las Vegas;36.2333;-115.2654;US;USA;Nevada;;2104198;1840020364
United States;Las Vegas;8.8;11.1;15;19.1;24.7;29.9;33.2;32.1;27.6;20.4;13.1;8.2;20.3;North America;Las Vegas;35.6011;-105.2206;US;USA;New Mexico;;14662;1840020397
United States;Lake Havasu City;12.2;14.6;18.1;22.4;27.9;32.7;36.1;35.5;31.3;24.1;17;11.7;23.7;North America;Lake Havasu City;34.5006;-114.3113;US;USA;Arizona;;56820;1840021044
United States;Los Angeles;14.4;14.9;15.9;17.3;18.8;20.7;22.9;23.5;22.8;20.3;16.9;14.2;18.6;North America;Los Angeles;34.1139;-118.4068;US;USA;California;;12750807;1840020491
United States;Louisville;1.1;3.3;8.3;13.9;18.9;23.7;25.7;25.2;21.1;14.8;8.7;2.7;13.9;North America;Louisville;38.1663;-85.6485;US;USA;Kentucky;;1005654;1840030815
United States;Louisville;1.1;3.3;8.3;13.9;18.9;23.7;25.7;25.2;21.1;14.8;8.7;2.7;13.9;North America;Louisville;39.9709;-105.1441;US;USA;Colorado;;20816;1840020179
United States;Louisville;1.1;3.3;8.3;13.9;18.9;23.7;25.7;25.2;21.1;14.8;8.7;2.7;13.9;North America;Louisville;40.8371;-81.2643;US;USA;Ohio;;9360;1840000964
United States;Memphis;5.2;7.5;12.2;17.2;22.1;26.4;28.2;27.8;24;17.8;11.8;6.4;17.2;North America;Memphis;35.1046;-89.9773;US;USA;Tennessee;;1066967;1840015457
United States;Memphis;5.2;7.5;12.2;17.2;22.1;26.4;28.2;27.8;24;17.8;11.8;6.4;17.2;North America;Memphis;27.5435;-82.5607;US;USA;Florida;;8788;1840014172
United States;Miami;19.9;21.1;22.4;24.2;26.5;28.1;28.8;28.9;28.2;26.4;23.7;21.2;24.9;North America;Miami;25.7839;-80.2102;US;USA;Florida;;6445545;1840015149
United States;Miami;19.9;21.1;22.4;24.2;26.5;28.1;28.8;28.9;28.2;26.4;23.7;21.2;24.9;North America;Miami;36.8877;-94.8718;US;USA;Oklahoma;;15571;1840020346
United States;Milwaukee;-5.2;-3.2;1.9;7.8;13.3;19.2;22.3;21.7;17.4;10.9;4.1;-2.9;8.9;North America;Milwaukee;43.0642;-87.9673;US;USA;Wisconsin;;1365787;1840003046
United States;Minneapolis;-9.1;-6.2;0.4;8.6;15.1;20.4;23.2;21.7;16.7;9.4;0.9;-6.8;7.8;North America;Minneapolis;44.9635;-93.2678;US;USA;Minnesota;;2977172;1840007830
United States;Nashville;3.4;5.7;10.3;15.3;20;24.6;26.6;26.2;22.2;16;10.2;4.9;15.4;North America;Nashville;36.1715;-86.7843;US;USA;Tennessee;admin;1081903;1840036155
United States;Nashville;3.4;5.7;10.3;15.3;20;24.6;26.6;26.2;22.2;16;10.2;4.9;15.4;North America;Nashville;35.9692;-77.9555;US;USA;North Carolina;;5554;1840016167
United States;New Orleans;11.6;13.4;16.8;20.3;24.6;27.2;28.2;28.2;26.2;21.6;16.8;12.9;20.7;North America;New Orleans;30.0687;-89.9288;US;USA;Louisiana;;1020886;1840001839
United States;New York City;0.6;2.1;6.1;11.9;17.1;22.1;24.9;24.3;20.2;14.1;8.9;3.3;12.9;North America;;;;;;;;;
United States;"Oklahoma
City";3.6;6.1;10.7;15.6;20.6;25.1;27.8;27.6;22.8;16.5;9.9;4.3;15.9;North America;;;;;;;;;
United States;Omaha;-4.6;-2.1;4.2;10.9;16.9;22.3;24.8;23.7;18.8;11.8;3.8;-3.3;10.6;North America;Omaha;41.2627;-96.0522;US;USA;Nebraska;;847819;1840009315
United States;Palm Springs;16.3;18.1;20.7;23.7;26.8;30.7;33.8;33.6;30.5;24.9;19.2;15.7;24.5;North America;Palm Springs;26.6349;-80.0968;US;USA;Florida;;25216;1840018308
United States;Palm Springs;16.3;18.1;20.7;23.7;26.8;30.7;33.8;33.6;30.5;24.9;19.2;15.7;24.5;North America;Palm Springs;33.8017;-116.5382;US;USA;California;;48518;1840020556
United States;Philadelphia;0.5;2;6.4;12.2;17.7;22.9;25.6;24.7;20.6;14.2;8.7;3;13.2;North America;Philadelphia;40.0077;-75.1339;US;USA;Pennsylvania;;5649300;1840000673
United States;Philadelphia;0.5;2;6.4;12.2;17.7;22.9;25.6;24.7;20.6;14.2;8.7;3;13.2;North America;Philadelphia;32.7761;-89.1221;US;USA;Mississippi;;7345;1840014869
United States;Phoenix;13.6;15.4;18.5;22.7;27.8;32.7;34.9;34.2;31.3;24.8;17.9;13.1;23.9;North America;Phoenix;33.5722;-112.0891;US;USA;Arizona;admin;4219697;1840020568
United States;Pittsburgh;-1.9;-0.4;4.3;10.6;15.7;20.5;22.7;22;17.9;11.6;6.2;0.3;10.8;North America;Pittsburgh;40.4396;-79.9762;US;USA;Pennsylvania;;1703266;1840001254
United States;Portland (OR);5.2;6.6;8.9;11.3;14.6;17.6;20.7;20.9;18.1;12.7;8.1;4.7;12.4;North America;;;;;;;;;
United States;Sacramento;8.1;10.6;12.7;15;18.8;22.1;24.2;23.8;22.1;17.9;11.9;8;16.3;North America;Sacramento;38.5667;-121.4683;US;USA;California;admin;1898019;1840021491
United States;"Salt Lake
City";-1.3;1.3;6.6;10.4;15.5;21.1;26.1;25.1;19.1;11.8;4.6;-0.8;11.6;North America;;;;;;;;;
United States;San Antonio;11;13.1;16.8;20.8;25;28.1;29.3;29.7;26.6;21.8;16.2;11.6;20.8;North America;San Antonio;29.4658;-98.5253;US;USA;Texas;;2049293;1840022220
United States;San Diego;14.2;14.7;15.5;16.8;18.1;19.4;21.4;22.2;21.7;19.6;16.6;13.9;17.8;North America;San Diego;32.8312;-117.1225;US;USA;California;;3220118;1840021990
United States;San Francisco;11.2;12.6;13.3;13.9;14.7;15.8;16.3;16.9;17.5;16.8;14.1;11.4;14.6;North America;;;;;;;;;
United States;San Jose;10.8;12.5;13.8;15.2;17.8;20.2;21.6;21.8;20.7;17.9;13.9;10.6;16.4;North America;San Jose;37.3019;-121.8486;US;USA;California;;1798103;1840021570
United States;Seattle;5.4;6.2;7.9;10.1;13.2;15.9;18.6;18.8;16.2;11.4;7.4;4.7;11.3;North America;Seattle;47.6211;-122.3244;US;USA;Washington;;3789215;1840021117
United States;St. Louis;-0.1;2.4;7.9;14.1;19.3;24.4;26.7;25.9;21.3;14.8;8.2;1.6;13.9;North America;St. Louis;38.6358;-90.2451;US;USA;Missouri;;2024074;1840001651
United States;St. Louis;-0.1;2.4;7.9;14.1;19.3;24.4;26.7;25.9;21.3;14.8;8.2;1.6;13.9;North America;St. Louis;43.4082;-84.6118;US;USA;Michigan;;7265;1840002878
United States;Tampa;15.9;17.3;19.5;22.1;25.7;27.8;28.2;28.3;27.5;24.4;20.6;17.2;22.9;North America;Tampa;27.9942;-82.4451;US;USA;Florida;;2908063;1840015982
United States;Tucson;11.6;13.1;15.8;19.7;24.6;29.6;30.8;29.8;27.7;21.9;15.6;11.3;20.9;North America;Tucson;32.1545;-110.8782;US;USA;Arizona;;888486;1840022101
United States;"Virginia
Beach";4.9;6.1;9.8;14.8;19.4;24.3;26.7;25.7;22.6;16.9;11.8;6.9;15.8;North America;;;;;;;;;
United States;Washington;2.3;3.9;8.3;13.8;18.9;24.1;26.6;25.7;21.7;15.3;9.8;4.3;14.6;North America;;;;;;;;;
United States;Wichita;0.1;2.9;8.1;13.4;18.9;24.3;27.3;26.7;21.7;14.6;7.4;0.9;13.9;North America;Wichita;37.6896;-97.3442;US;USA;Kansas;;482249;1840001686
Australia;Adelaide;23.2;23.3;20.9;17.6;13.5;12.1;11.4;12.4;14.4;16.7;19.7;21.3;17.3;Oceania;Adelaide;-34.9289;138.6011;AU;AUS;South Australia;admin;1345777;1036538171
Australia;Alice Springs;28;27;25;20;15;12;11;14;18;22;25;27;21;Oceania;Alice Springs;-23.7;133.8667;AU;AUS;Northern Territory;;23726;1036830397
Australia;Brisbane;25.8;25.7;24.5;22.3;19.1;16.8;16;17;19.7;21.7;23.5;24.8;21.4;Oceania;Brisbane;-27.4678;153.0281;AU;AUS;Queensland;admin;2514184;1036192929
Australia;Cairns;27;27;26;25;23;21;21;22;23;25;26;27;25;Oceania;Cairns;-16.9303;145.7703;AU;AUS;Queensland;;152729;1036016939
Australia;Canberra;20.6;20.1;17.6;13.4;9.4;6.7;5.7;7;9.8;12.8;15.8;18.8;13.1;Oceania;Canberra;-35.2931;149.1269;AU;AUS;Australian Capital Territory;primary;426704;1036142029
Australia;Dampier;31;31.3;30.9;28.6;24.1;20.9;19.8;21.2;23.7;26.2;28.3;30.2;26.4;Oceania;;;;;;;;;
Australia;Darwin;28.3;28.1;28.3;28.4;27.1;25.3;25;25.9;27.8;29.1;29.3;29;27.6;Oceania;Darwin;-12.4381;130.8411;AU;AUS;Northern Territory;admin;136828;1036497565
Australia;Hobart;16.8;16.9;15.6;13.2;10.8;8.6;8.2;9.2;10.8;12.4;14;15.6;12.7;Oceania;Hobart;-42.8806;147.325;AU;AUS;Tasmania;admin;240342;1036679838
Australia;Melbourne;20.1;20.2;18.6;15.6;12.7;10.5;9.8;10.9;12.7;14.7;16.6;18.6;15.1;Oceania;Melbourne;-37.8136;144.9631;AU;AUS;Victoria;admin;5078193;1036533631
Australia;Perth;24.5;24.9;23.1;19.7;16.5;14;13;13.5;14.8;17.3;20.3;22.7;18.7;Oceania;Perth;-31.9522;115.8589;AU;AUS;Western Australia;admin;2059484;1036178956
Australia;Sydney;22.3;22.3;21.2;18.5;15.5;13.1;12.2;13.4;15.5;17.8;19.6;21.3;17.7;Oceania;Sydney;-33.865;151.2094;AU;AUS;New South Wales;admin;5312163;1036074917
Chile;Hanga Roa;23.3;23.7;23.1;21.9;20.1;18.9;18;17.9;18.3;19;20.4;21.8;20.5;Oceania;Hanga Roa;-27.1492;-109.4323;CL;CHL;Valparaíso;minor;7163;1152267672
Fiji;Suva;27.4;27.6;26.4;26.6;25.4;24.6;23.8;23.7;24.1;25.1;26.1;26.9;25.6;Oceania;Suva;-18.1333;178.4333;FJ;FJI;Rewa;primary;88271;1242615095
New Zealand;Auckland;19.1;19.7;18.4;16.1;14;11.8;10.9;11.3;12.7;14.2;15.7;17.8;15.2;Oceania;Auckland;-36.85;174.7833;NZ;NZL;Auckland;admin;1467800;1554435911
New Zealand;Christchurch;17.5;17.2;15.5;12.7;9.8;7.1;6.6;7.9;10.3;12.2;14.1;16.1;12.2;Oceania;Christchurch;-43.5309;172.6365;NZ;NZL;Canterbury;admin;377200;1554377228
New Zealand;Dunedin;15.3;15;13.7;11.7;9.3;7.3;6.6;7.7;9.5;10.9;12.4;13.9;11.1;Oceania;Dunedin;-45.8667;170.5;NZ;NZL;Otago;admin;126255;1554475997
New Zealand;Hamilton;18.4;18.8;17.1;14.5;11.9;9.5;8.9;9.8;11.6;13.2;14.9;16.9;13.8;Oceania;Hamilton;-37.7833;175.2833;NZ;NZL;Waikato;admin;169300;1554873040
New Zealand;Lake Tekapo;15.2;14.8;12.4;9.2;5.9;2.6;1.4;3.6;6.5;8.8;11.1;13.2;8.7;Oceania;;;;;;;;;
New Zealand;Napier;19.5;19.4;17.7;15;12.4;10;9.4;10.3;12.3;14.3;16.1;18.4;14.6;Oceania;Napier;-39.4833;176.9167;NZ;NZL;Hawke’s Bay;admin;62800;1554064936
New Zealand;Palmerston North;17.8;18.3;16.4;13.6;11.4;9.1;8.6;9.2;11;12.4;13.8;16.2;13.2;Oceania;Palmerston North;-40.3549;175.6095;NZ;NZL;Manawatu-Wanganui;admin;80300;1554138183
New Zealand;Tauranga;19.4;19.6;18;15.5;13.2;10.8;10.2;10.7;12.3;13.9;15.8;18;14.8;Oceania;Tauranga;-37.6858;176.1667;NZ;NZL;Bay of Plenty;;135000;1554759867
New Zealand;Wellington;16.9;17.2;15.8;13.7;11.7;9.7;8.9;9.4;10.8;12;13.5;15.4;12.9;Oceania;Wellington;-41.2889;174.7772;NZ;NZL;Wellington;primary;418500;1554772152
Papua New Guinea;Port Moresby;27.4;27.3;27.1;27;26.9;26.1;25.7;26.1;26.5;27.5;27.6;27.8;26.9;Oceania;Port Moresby;-9.4789;147.1494;PG;PNG;National Capital;primary;364125;1598685395
Solomon Islands;Honiara;26.7;26.6;26.6;26.5;26.6;26.4;26.1;26.2;26.5;26.5;26.7;26.8;26.5;Oceania;Honiara;-9.4333;159.95;SB;SLB;Honiara;primary;84520;1090737486
United States;Honolulu;22.9;22.9;23.7;24.6;25.6;26.8;27.4;27.8;27.6;26.8;25.4;23.8;25.4;Oceania;Honolulu;21.3294;-157.846;US;USA;Hawaii;admin;820987;1840013305
Vanuatu;Port Vila;26.4;26.5;26.3;25.3;24.1;23;22.1;22;22.7;23.4;24.6;25.7;24.3;Oceania;;;;;;;;;
Argentina;Bahía Blanca;23.6;22.1;19.4;14.9;11.1;8.1;7.5;9.4;11.6;15.1;18.7;22;15.3;South America;Bahia Blanca;-38.7167;-62.2667;AR;ARG;Buenos Aires;minor;299101;1032795766
Argentina;Bariloche;15;14.8;11.9;7.9;4.9;2.9;2.1;3;5.1;8;10.8;13.5;8.3;South America;;;;;;;;;
Argentina;Buenos Aires;24.9;23.6;21.9;17.9;14.5;11.7;11;12.8;14.6;17.9;20.7;23.3;17.9;South America;Buenos Aires;-34.5997;-58.3819;AR;ARG;Buenos Aires, Ciudad Autónoma de;primary;16157000;1032717330
Argentina;Comodoro Rivadavia;19.7;18.8;16.3;13.1;9.6;6.9;6.6;7.9;10.1;13;15.9;18.2;13;South America;Comodoro Rivadavia;-45.8667;-67.5;AR;ARG;Chubut;minor;173266;1032042035
Argentina;Córdoba;24.9;23.1;21.7;18;14.5;11.4;10.8;13.3;15.7;19.5;21.8;23.7;18.2;South America;Cordoba;-31.4167;-64.1833;AR;ARG;Córdoba;admin;1329604;1032803249
Argentina;Mar del Plata;20.4;19.8;18.2;14.5;11.2;8.4;7.5;8.8;10.4;13.3;15.9;18.5;13.9;South America;Mar del Plata;-38;-57.55;AR;ARG;Buenos Aires;minor;593337;1032456103
Argentina;Mendoza;25.5;24;21.3;16.2;11.8;8.4;7.9;10.6;13.9;18.8;22.2;24.9;17.1;South America;Mendoza;-32.8833;-68.8333;AR;ARG;Mendoza;admin;114822;1032433516
Argentina;Neuquén;23.7;22.3;18.9;13.4;9.2;6.6;5.8;8.1;11.4;15.6;19.4;22.4;14.7;South America;Neuquen;-38.9573;-68.0455;AR;ARG;Neuquén;admin;231198;1032525768
Argentina;Resistencia;26.8;25.9;24.6;21.2;17.6;15.4;14.8;16.7;18.5;21.8;23.6;25.8;21.1;South America;Resistencia;-27.4514;-58.9867;AR;ARG;Chaco;admin;291720;1032720891
Argentina;Río Gallegos;13.8;13.2;10.8;7.6;4.2;1.4;1.2;3.1;5.7;8.4;11.1;12.8;7.8;South America;Rio Gallegos;-51.6333;-69.2333;AR;ARG;Santa Cruz;admin;95796;1032471024
Argentina;Rosario;24.6;23.2;21.4;17.3;13.8;10.7;10;12.1;14.5;18.1;21;23.4;17.5;South America;Rosario;-32.9575;-60.6394;AR;ARG;Santa Fe;minor;1193605;1032770677
Argentina;Salta;21.4;20.3;19.5;16.6;13.1;10.6;10.1;12.7;15.1;19.1;20.5;21.5;16.7;South America;Salta;-24.7883;-65.4106;AR;ARG;Salta;admin;535303;1032926124
Argentina;San Juan;27.1;25.5;22.8;17.2;12.2;8.3;7.7;10.6;14.4;19.8;23.4;26.3;17.9;South America;San Juan;-31.5375;-68.5364;AR;ARG;San Juan;admin;471389;1032869625
Argentina;"San Miguel
de Tucumán";25.2;24;22.6;19.2;15.7;12.7;12.2;14.9;17.8;21.8;23.4;24.9;19.5;South America;;;;;;;;;
Argentina;Santiago del Estero;26.7;25.5;23.8;19.8;16.1;12.7;12.2;15.3;18.5;22.7;24.8;26.5;20.4;South America;Santiago del Estero;-27.7844;-64.2669;AR;ARG;Santiago del Estero;admin;252192;1032492280
Argentina;Ushuaia;9.6;9.3;7.7;5.7;3.2;1.7;1.3;2.2;4.1;6.2;7.8;9.1;5.7;South America;Ushuaia;-54.8072;-68.3044;AR;ARG;Tierra del Fuego, Antártida e Islas del Atlántico Sur;admin;56956;1032847885
Argentina;Viedma;22.1;20.8;18.3;13.8;9.9;7.2;6.6;8.2;10.5;14.3;17.7;20.6;14.2;South America;Viedma;-40.8;-63;AR;ARG;Río Negro;admin;59122;1032613063
Bolivia;La Paz;9.3;9;8.9;8.8;8.2;7.3;6.8;8.2;8.7;10;10.5;9.7;8.8;South America;La Paz;-16.4942;-68.1475;BO;BOL;La Paz;primary;2867504;1068000064
Bolivia;Santa Cruz de la Sierra;26.8;26.6;26.2;24.7;22.8;20.4;21.1;23;25.2;26.4;27.1;27;24.8;South America;;;;;;;;;
Bolivia;Sucre;16.2;15.7;15.8;15.5;14.9;13.8;13.9;14.9;16.2;16.9;17.3;16.7;15.6;South America;Sucre;-19.0431;-65.2592;BO;BOL;Chuquisaca;primary;300000;1068823873
Brazil;Belém;25.6;25.4;25.5;25.6;25.8;26;25.7;26;26;26.4;26.5;26.2;25.9;South America;Belem;-1.4558;-48.5039;BR;BRA;Pará;admin;1393399;1076646823
Brazil;Belo Horizonte;22.8;23;22.9;21.7;19.6;18.5;18;19.7;21.1;21.7;22.2;22.2;21.1;South America;Belo Horizonte;-19.8917;-43.9478;BR;BRA;Minas Gerais;admin;5159000;1076967355
Brazil;Brasília;21.2;21.3;21.5;20.9;19.6;18.5;18.3;20.3;21.7;21.6;21.1;21;20.6;South America;Brasilia;-15.7744;-48.0773;BR;BRA;Distrito Federal;primary;3015268;1076144436
Brazil;Campos do Jordão;17.3;17.5;16.7;14.7;11.9;10.1;9.5;11.3;13.4;14.9;15.9;16.6;14.2;South America;Campos do Jordao;-22.7394;-45.5914;BR;BRA;São Paulo;;50852;1076353308
Brazil;Curitiba;20.4;20.6;19.6;17.2;14.5;13.1;12.9;14.1;15;16.5;18.2;19.3;16.8;South America;Curitiba;-25.4297;-49.2719;BR;BRA;Paraná;admin;1879355;1076701712
Brazil;Florianópolis;24.9;25.1;24.5;22.2;19.2;17.2;16.4;17;18.3;20.3;22.2;24;20.9;South America;Florianopolis;-27.5933;-48.553;BR;BRA;Santa Catarina;admin;477798;1076190259
Brazil;Fortaleza;27.1;26.9;26.4;26.2;26.2;25.8;25.6;26;26.4;26.9;27.2;27.3;26.6;South America;Fortaleza;-3.7275;-38.5275;BR;BRA;Ceará;admin;2452185;1076567885
Brazil;Goiânia;23.8;23.8;24;23.6;22.2;20.9;20.9;23;24.5;24.6;24.1;23.5;23.2;South America;Goiania;-16.6789;-49.2539;BR;BRA;Goiás;admin;1393575;1076034054
Brazil;Manaus;26.1;25.9;26;26.2;26.2;26.4;26.5;27.3;27.7;27.7;27.2;26.6;26.7;South America;Manaus;-3.1;-60.0167;BR;BRA;Amazonas;admin;1802014;1076607274
Brazil;Porto Alegre;24.6;24.6;23.1;19.9;16.9;14.3;14.4;15.2;16.8;19.1;21.2;23.3;19.5;South America;Porto Alegre;-30.0328;-51.23;BR;BRA;Rio Grande do Sul;admin;1484941;1076658221
Brazil;Recife;26.5;26.5;26.4;25.9;25.2;24.5;23.9;23.9;24.6;25.5;26.1;26.4;25.5;South America;Recife;-8.0539;-34.8808;BR;BRA;Pernambuco;admin;1555039;1076137337
Brazil;Rio de Janeiro;26.3;26.6;26;24.4;22.8;21.8;21.3;21.8;22.2;22.9;24;25.3;23.8;South America;Rio de Janeiro;-22.9083;-43.1964;BR;BRA;Rio de Janeiro;admin;12272000;1076887657
Brazil;Salvador;26.4;26.5;26.6;26.2;25.2;24.3;23.7;23.6;24.3;25.1;25.5;25.9;25.3;South America;Salvador;-12.9708;-38.5108;BR;BRA;Bahia;admin;2921087;1076923789
Brazil;São Joaquim;16.8;17.1;15.9;13.2;11.4;9.7;9.8;10.7;12;12.8;14.4;16;13.3;South America;;;;;;;;;
Brazil;São Paulo;22.1;22.4;21.8;19.7;17.4;16.3;15.8;17.1;17.9;19;20.2;21.1;19.2;South America;Sao Paulo;-23.5504;-46.6339;BR;BRA;São Paulo;admin;22046000;1076532519
Brazil;Vitória;26.9;27.4;27.1;25.9;24;22.8;22.4;22.6;23.2;24.3;24.9;26;24.8;South America;Vitoria;-20.324;-40.366;BR;BRA;Espírito Santo;admin;1704000;1076376829
Chile;Antofagasta;20.2;20;19.1;17.1;15.5;14.2;13.7;14;14.7;15.8;17.3;18.9;16.7;South America;Antofagasta;-23.6464;-70.398;CL;CHL;Antofagasta;admin;380695;1152734289
Chile;Concepción;16.5;15.9;14.5;12.3;10.7;9.5;8.8;9.3;10.2;11.9;13.8;15.6;12.4;South America;Concepcion;-36.8271;-73.0503;CL;CHL;Biobío;admin;217537;1152838958
Chile;La Serena;17.1;16.9;15.6;13.7;12.3;10.9;10.7;10.9;11.6;12.9;14.6;16.1;13.6;South America;La Serena;-29.9027;-71.252;CL;CHL;Coquimbo;admin;221054;1152155065
Chile;Punta Arenas;10.8;10.3;8.5;6.2;3.7;1.5;1.4;2.3;4.2;6.4;8.4;9.9;6.1;South America;Punta Arenas;-53.1627;-70.9081;CL;CHL;Magallanes y de la Antártica Chilena;admin;123403;1152262933
Chile;Santiago;21.2;20.3;18.2;14.4;10.9;9;8.2;9.8;12;15;17.7;20.1;14.7;South America;Santiago;-33.45;-70.6667;CL;CHL;Región Metropolitana;primary;7007000;1152554349
Colombia;Bogotá;14.3;14.5;14.9;14.9;15;14.5;14.6;14.1;14.3;14.3;14.4;14.6;14.4;South America;Bogota;4.6126;-74.0705;CO;COL;Bogotá;primary;9464000;1170483426
Colombia;Barranquilla;26.5;26.7;27;27.5;28.1;28.1;27.9;27.9;27.6;27.2;27.4;26.9;27.4;South America;Barranquilla;10.96;-74.8;CO;COL;Atlántico;admin;1798000;1170179113
Colombia;Medellín;22.4;22.7;22.7;22.4;22.6;22.9;23.1;23.1;22.4;21.8;21.8;21.9;22.5;South America;Medellin;6.2447;-75.5748;CO;COL;Antioquia;admin;2529403;1170680389
Ecuador;Guayaquil;27.1;27.3;28;27.8;26.9;25.7;25;25.2;25.5;25.6;26.2;27.1;26.5;South America;Guayaquil;-2.1833;-79.8833;EC;ECU;Guayas;admin;2723665;1218802178
Ecuador;Quito;14.2;14;14.3;14.3;14.5;14.5;14.6;15;14.8;14.3;14.3;14.4;14.4;South America;Quito;-0.2186;-78.5097;EC;ECU;Pichincha;primary;2011388;1218441993
Falkland Islands;Stanley;9.5;8.9;8.1;6.1;3.9;2.2;1.9;2.2;3.9;5.3;7;8.1;5.6;South America;;;;;;;;;
French Guiana;Cayenne;26.2;26.3;26.5;26.8;26.7;26.6;26.6;27;27.2;27.3;27;26.6;26.7;South America;Cayenne;4.933;-52.33;GF;GUF;;admin;61550;1254304969
Guyana;Georgetown;26.1;26.4;26.7;27;26.8;26.5;26.6;27;27.5;27.6;27.2;26.4;26.8;South America;Georgetown;6.7833;-58.1667;GY;GUY;Demerara-Mahaica;primary;200500;1328160906
Paraguay;Asunción;27.5;26.9;25.9;22.8;19.8;17.6;17.9;18.6;20.5;23.2;24.9;26.5;22.7;South America;Asuncion;-25.3;-57.6333;PY;PRY;Asunción;primary;1870000;1600057911
Peru;Cusco;12.9;12.7;12.8;12.7;12;11.4;10.8;11.5;12.7;13.6;13.6;13.2;12.5;South America;Cusco;-13.5183;-71.9781;PE;PER;Cusco;admin;428450;1604162901
Peru;Lima;22.1;22.7;22.2;20.6;18.8;17.5;16.7;16.2;16.4;17.3;18.7;20.7;19.2;South America;Lima;-12.05;-77.0333;PE;PER;Lima;primary;9848000;1604728603
Peru;Piura;26.8;27.8;27.8;26.6;24.5;22.9;21.8;21.9;22.3;22.9;23.6;25.2;24.5;South America;Piura;-5.2008;-80.6253;PE;PER;Piura;admin;473025;1604331641
Suriname;Paramaribo;26;26;26.2;26.7;26.5;26.5;26.7;27.4;27.8;27.9;27.3;26.4;26.8;South America;Paramaribo;5.8667;-55.1667;SR;SUR;Paramaribo;primary;223757;1740518660
Uruguay;Montevideo;23;22.5;20.6;17.2;14;11.1;10.9;11.7;13.4;16;18.6;21.3;16.7;South America;Montevideo;-34.8667;-56.1667;UY;URY;Montevideo;primary;1319108;1858107000
Venezuela;Caracas;20.2;20.8;21.7;22.7;23.2;22.6;22.2;22.3;22.7;22.4;22;20.7;22;South America;Caracas;10.5;-66.9333;VE;VEN;Distrito Capital;primary;1943901;1862748204
Australia;North Sydney;22.3;22.3;21.2;18.5;15.5;13.1;12.2;13.4;15.5;17.8;19.6;21.3;17.7;Oceania;Sydney;-33.865;151.2094;AU;AUS;New South Wales;admin;5312163;1036074917
Greece;Athens;11.1;11.2;13.3;16.9;21.4;26.3;29;28.8;25.2;20.6;15.8;12.6;19.4;Europe;Greece;37.9794;23.7161;GR;GRC;Attikí;primary;664046;1300715560
Italy;Roma;7.5;8.2;10.2;12.6;17.2;21.1;24.1;24.5;20.8;16.4;11.4;8.4;15.2;Europe;Rome;41.8931;12.4828;IT;ITA;Lazio;primary;2872800;1380382862
United Kingdom;Londres;4.3;4.5;6.9;8.7;12.1;15.1;17.3;17;14.3;10.9;7.2;4.7;10.3;Europe;London;51.5072;-0.1275;GB;GBR;London, City of;primary;10979000;1826645935
United Kingdom;Edimburgo;4.2;4.5;6.2;8.1;10.8;13.5;15.3;15.2;13;9.8;6.7;4.2;9.3;Europe;Edinburgh;55.953;-3.189;GB;GBR;Edinburgh, City of;;488050;1826492520
United States;Los Angeles County;14.4;14.9;15.9;17.3;18.8;20.7;22.9;23.5;22.8;20.3;16.9;14.2;18.6;North America;Los Angeles;34.1139;-118.4068;US;USA;California;;12750807;1840020491
United States;New York;0.6;2.1;6.1;11.9;17.1;22.1;24.9;24.3;20.2;14.1;8.9;3.3;12.9;North America;;;;;;;;;
